<?xml version="1.0" encoding="utf-8"?>
<!-- Generator: Adobe Illustrator 16.0.0, SVG Export Plug-In . SVG Version: 6.00 Build 0)  -->
<!DOCTYPE svg PUBLIC "-//W3C//DTD SVG 1.1//EN" "http://www.w3.org/Graphics/SVG/1.1/DTD/svg11.dtd">
<svg version="1.1" id="Capa_1" xmlns="http://www.w3.org/2000/svg" xmlns:xlink="http://www.w3.org/1999/xlink" x="0px" y="0px"
	 width="100.986px" height="101.986px" viewBox="0 0 100.986 101.986" enable-background="new 0 0 100.986 101.986"
	 xml:space="preserve">
<path fill="#8B9932" d="M95.116,62.409l-11.419,4.504l3.562,11.731l-12.15-0.21l-1.151,12.151l-11.208-4.819l-5.762,10.79
	l-8.483-8.799l-9.427,7.856l-4.506-11.42l-11.729,3.667l0.208-12.256l-12.15-1.15l4.817-11.207L4.929,57.592l8.798-8.59
	l-7.855-9.426l11.417-4.504l-3.562-11.628l12.15,0.212L27.03,11.4l11.208,4.923l5.762-10.895l8.484,8.797l9.428-7.751l4.504,11.314
	l11.73-3.563L77.937,26.48l12.15,1.152L85.269,38.84l10.79,5.657L87.26,52.98L95.116,62.409z"/>

</svg>
