{
    "prepare_queue": {
        "installed": [],
        "uninstalled": []
    },
    "config_munge": {
        "files": {
            "config.xml": {
                "parents": {
                    "/*": [
                        {
                            "xml": "<feature name=\"SecureStorage\"><param name=\"browser-package\" value=\"SecureStorage\" /></feature>",
                            "count": 1
                        }
                    ]
                }
            }
        }
    },
    "installed_plugins": {
        "cordova-plugin-secure-storage": {
            "PACKAGE_NAME": "com.santander.emprende"
        }
    },
    "dependent_plugins": {},
    "modules": [
        {
            "file": "plugins/cordova-plugin-secure-storage/www/securestorage.js",
            "id": "cordova-plugin-secure-storage.SecureStorage",
            "pluginId": "cordova-plugin-secure-storage",
            "clobbers": [
                "SecureStorage"
            ]
        },
        {
            "file": "plugins/cordova-plugin-secure-storage/www/sjcl_ss.js",
            "id": "cordova-plugin-secure-storage.sjcl_ss",
            "pluginId": "cordova-plugin-secure-storage",
            "runs": true
        }
    ],
    "plugin_metadata": {
        "cordova-plugin-secure-storage": "2.1.0"
    }
}