<?xml version="1.0" encoding="utf-8"?>
<!-- Generator: Adobe Illustrator 16.0.0, SVG Export Plug-In . SVG Version: 6.00 Build 0)  -->
<!DOCTYPE svg PUBLIC "-//W3C//DTD SVG 1.1//EN" "http://www.w3.org/Graphics/SVG/1.1/DTD/svg11.dtd">
<svg version="1.1" id="icons" xmlns="http://www.w3.org/2000/svg" xmlns:xlink="http://www.w3.org/1999/xlink" x="0px" y="0px"
	 width="89.5px" height="82px" viewBox="0 0 89.5 82" enable-background="new 0 0 89.5 82" xml:space="preserve">
<g id="ICONO_x5F_18_MESES">
	<g>
		<path fill="#B7B7B7" d="M55.891,13.64c0-2.757-2.244-5-5-5H40.47l-1.707-2.986l-0.17-0.308c-0.91-1.651-2.045-3.706-4.703-3.706
			h-10c-2.789,0-3.989,2.311-4.868,4.004L17.31,8.64H6.89c-2.757,0-5,2.243-5,5v13c0,1.136,0.381,2.248,1,3.215v20.786
			c0,2.756,2.243,5,5,5h42c2.756,0,5-2.244,5-5V29.854c0.618-0.967,1-2.079,1-3.215V13.64z M20.799,6.559
			c0.943-1.816,1.622-2.919,3.091-2.919h10c1.408,0,2.011,0.966,2.953,2.673l1.326,2.327H19.612L20.799,6.559z M3.89,13.64
			c0-1.654,1.346-3,3-3h44c1.653,0,3,1.346,3,3v13c0,1.745-1.431,3.576-3.123,4L34.89,34.61v-1.968c0.003-1.631-1.336-2.977-3-3.002
			h-6.014c-1.65,0.023-2.989,1.37-2.986,3v1.97L7.013,30.64c-1.693-0.424-3.123-2.255-3.123-4V13.64z M32.89,32.64v4.998
			c-0.002,0.685-0.613,1.541-1.201,1.694c-1.828,0.457-3.779,0.454-5.588,0.003c-0.598-0.156-1.209-1.013-1.211-1.695v-5.002
			c-0.001-0.533,0.463-0.99,1-0.998h5.984C32.426,31.647,32.891,32.105,32.89,32.64z M49.891,53.641h-42c-1.654,0-3-1.347-3-3
			V31.857c0.509,0.32,1.056,0.576,1.638,0.722l16.119,4.03c0.082,0.021,0.162,0.012,0.243,0.012v1.021
			c0.003,1.612,1.217,3.24,2.717,3.632c1.073,0.267,2.178,0.402,3.283,0.402s2.21-0.136,3.293-0.405
			c1.49-0.389,2.704-2.017,2.707-3.631v-1c0.08,0,0.162-0.01,0.242-0.03l16.119-4.03c0.582-0.146,1.13-0.401,1.64-0.722v18.783
			C52.891,52.294,51.544,53.641,49.891,53.641z"/>
	</g>
	<ellipse fill="#FFFFFF" cx="60.635" cy="56.781" rx="23.54" ry="23.131"/>
	<g id="ico_x5F_mundo_x5F_GRIS">
		<g>
			<path fill="#B7B7B7" d="M61.169,55.783h10.043c-0.052-3.018-0.38-5.926-0.968-8.611c-2.557,0.221-5.567,0.372-9.075,0.393V55.783
				z"/>
		</g>
		<g>
			<path fill="#B7B7B7" d="M50.813,67.669c0.584,2.181,1.34,4.185,2.26,5.938c1.084,2.065,2.314,3.645,3.658,4.691
				c0.615,0.48,1.24,0.832,1.869,1.063c0.295,0.021,0.594,0.039,0.892,0.049V67.298C56.154,67.318,53.271,67.463,50.813,67.669z"/>
		</g>
		<g>
			<path fill="#B7B7B7" d="M71.215,57.432H61.169v8.219c3.505,0.021,6.517,0.173,9.069,0.393
				C70.83,63.352,71.165,60.443,71.215,57.432z"/>
		</g>
		<g>
			<path fill="#B7B7B7" d="M72.895,57.432c-0.052,2.99-0.379,5.965-0.979,8.771c4.374,0.461,7.196,1.105,8.717,1.533
				c1.827-3.203,2.806-6.742,2.935-10.305H72.895z"/>
		</g>
		<g>
			<path fill="#B7B7B7" d="M71.533,67.828c-0.555,2.143-1.28,4.163-2.176,5.98c-1.026,2.082-2.192,3.73-3.441,4.948
				c4.093-0.991,7.962-3.083,11.111-6.274c1.017-1.026,1.912-2.125,2.69-3.275C78.166,68.805,75.491,68.239,71.533,67.828z"/>
		</g>
		<g>
			<path fill="#B7B7B7" d="M69.846,45.546c-0.582-2.18-1.338-4.184-2.259-5.938c-1.083-2.065-2.313-3.644-3.659-4.692
				c-0.613-0.479-1.238-0.832-1.869-1.062c-0.295-0.022-0.593-0.038-0.891-0.049v12.112C64.505,45.896,67.389,45.752,69.846,45.546z
				"/>
		</g>
		<g>
			<path fill="#B7B7B7" d="M69.079,38.852c1.024,1.953,1.84,4.167,2.453,6.537c3.961-0.412,6.638-0.979,8.188-1.381
				c-0.91-1.346-1.979-2.618-3.209-3.787c-3.064-2.913-6.732-4.832-10.594-5.766C67.053,35.563,68.121,37.027,69.079,38.852z"/>
		</g>
		<g>
			<path fill="#B7B7B7" d="M72.891,55.783h10.676c-0.131-3.567-1.109-7.108-2.932-10.307c-1.52,0.429-4.342,1.073-8.716,1.537
				C72.518,49.814,72.84,52.79,72.891,55.783z"/>
		</g>
		<g>
			<path fill="#B7B7B7" d="M59.491,47.564c-3.505-0.021-6.515-0.172-9.071-0.393c-0.589,2.691-0.924,5.6-0.975,8.61h10.046V47.564z"
				/>
		</g>
		<g>
			<path fill="#B7B7B7" d="M58.609,33.854c-2.125,0.78-4.17,2.97-5.795,6.27c-0.805,1.632-1.473,3.458-1.998,5.423
				c2.457,0.206,5.34,0.35,8.675,0.37V33.805C59.195,33.816,58.902,33.832,58.609,33.854z"/>
		</g>
		<g>
			<path fill="#B7B7B7" d="M51.582,74.364c-1.025-1.953-1.84-4.169-2.455-6.536c-3.962,0.412-6.638,0.977-8.189,1.38
				c0.91,1.347,1.979,2.619,3.21,3.789c3.063,2.912,6.731,4.831,10.593,5.764C53.607,77.652,52.54,76.189,51.582,74.364z"/>
		</g>
		<g>
			<path fill="#B7B7B7" d="M67.848,73.09c0.805-1.632,1.473-3.457,1.998-5.421c-2.457-0.206-5.341-0.351-8.676-0.371V79.41
				c0.295-0.01,0.588-0.027,0.883-0.049C64.174,78.58,66.221,76.391,67.848,73.09z"/>
		</g>
		<g>
			<path fill="#B7B7B7" d="M47.77,57.432H37.094c0.13,3.568,1.109,7.108,2.931,10.307c1.52-0.428,4.341-1.074,8.717-1.536
				C48.143,63.4,47.82,60.424,47.77,57.432z"/>
		</g>
		<g>
			<path fill="#B7B7B7" d="M59.491,65.648v-8.217H49.448c0.052,3.017,0.38,5.926,0.967,8.61
				C52.973,65.823,55.984,65.671,59.491,65.648z"/>
		</g>
		<g>
			<path fill="#B7B7B7" d="M47.768,55.783c0.051-2.99,0.377-5.965,0.979-8.77c-4.375-0.463-7.197-1.108-8.718-1.537
				c-1.827,3.205-2.804,6.743-2.935,10.306L47.768,55.783L47.768,55.783z"/>
		</g>
		<g>
			<path fill="#B7B7B7" d="M49.127,45.387c0.557-2.144,1.281-4.163,2.176-5.98c1.026-2.082,2.193-3.73,3.442-4.949
				c-4.093,0.991-7.962,3.083-11.113,6.274c-1.015,1.028-1.911,2.125-2.689,3.277C42.494,44.411,45.169,44.977,49.127,45.387z"/>
		</g>
	</g>
</g>
</svg>
