<?xml version="1.0" encoding="utf-8"?>
<!-- Generator: Adobe Illustrator 16.0.0, SVG Export Plug-In . SVG Version: 6.00 Build 0)  -->
<!DOCTYPE svg PUBLIC "-//W3C//DTD SVG 1.1//EN" "http://www.w3.org/Graphics/SVG/1.1/DTD/svg11.dtd">
<svg version="1.1" id="Modo_de_aislamiento" xmlns="http://www.w3.org/2000/svg" xmlns:xlink="http://www.w3.org/1999/xlink"
	 x="0px" y="0px" width="411.023px" height="226.771px" viewBox="0 0 411.023 226.771" enable-background="new 0 0 411.023 226.771"
	 xml:space="preserve">
<g id="MAPA_MUNDI">
	<g>
		<path fill="#ECECEC" d="M92.102,13.917c-1.164,0.195-0.519,1.645,0,2.247c3.096,1.048,4.289-3.63,5.988-1.496
			c0.683,2.607-1.302,0.192-2.245,0.749c-0.23,0.135,0.199,1.297,0,1.496c-0.952,0.952-3.069-0.043-2.246,2.246
			c3.991,0,7.984,0,11.979,0c-1.047-2.99,2.047-2.539,2.994-3.741c0.829-1.063,0.269-2.022,1.496-2.995
			c1.337-0.139,1.752-0.438,2.995-0.751c1.755-0.438,4.71-2.346,5.238-2.992c0.189-0.231,1.223,0.152,1.498,0
			c0.416-0.231,1.049-1.197,1.498-1.499c1.169-0.785,3.566-1.021,2.995-2.994c-6.634-1.126-18.61-1.835-23.206,1.498
			c-1.848,0.65-5.185-0.19-5.241,2.245c0.245,1.754,3.264,0.727,3.743,2.249c-1.027,1.704,1.93,2.813,0,2.992
			c-1.204-1.113-1.007-2.689-2.246-3.74c-0.278-0.238-1.157,0.154-1.497,0c-0.28-0.129-0.382-1.381-0.749-1.5
			c-1.279-0.417-2.965,0.305-4.491,0c0.557,2.305-2.053,1.44-1.496,3.742C88.788,13.74,91.899,12.375,92.102,13.917z"/>
		<path fill="#ECECEC" d="M174.445,41.616c0.745-0.911,3.774,0.559,2.994-1.499c-1.313-0.431-4.396,0.907-4.492-0.747
			c1.749,0,3.494,0,5.242,0c0.353-2.352-2.016-1.978-2.246-3.744c1.518,0.411,0.982-0.869,1.496-1.497
			c0.205-0.247,1.289,0.244,1.497,0c0.374-0.438-0.313-1.758,0-2.245c0.248-0.383,1.746,0.15,1.499-0.749
			c-1.108-0.478-1.405-0.844-0.75-1.5c1.59-1.586-0.049-1.993,0-2.995c0.02-0.377,0.935-0.39,0.75-1.495
			c-0.119-0.717-1.689-1.667-1.499-2.246c0.033-0.095,1.372-0.624,1.499-0.749c1.484-1.487,2.137-2.726,2.992-4.49
			c1.115-0.886,3.345-0.65,2.997-2.994c-2.259,0.569-4.724,0.118-6.738,0.749c-1.151,0.359-1.678,1.981-2.994,1.496
			c0.18-1.068,1.234-1.265,1.499-2.245c-2.264-0.235-5.822,0.831-5.988-1.499c1.787-0.455,5.431,0.94,5.988-0.747
			c-1.824-0.805-7.211,0.028-5.988-2.245c-5.729-0.74-9.388,0.978-12.728,1.494c-1.522,0.236-2.729-0.823-3.743,0.751
			c0.755,0.008,0.943,1.31,0,1.495c-1.426-0.318-1.354-2.137-3.739-1.495c-1.284,0.123-0.553,1.932-1.499,0.747
			c-0.626-0.781-2.244,3.365-2.244,0.748c0-1.706-3.656,0.898-6.74,0c-0.952,3.043-5.466,2.519-6.735,5.241
			c1.287,0.295,1.916-1.112,2.245,0c-1.92,1.574-4.709,2.275-7.487,2.994c-0.891,3.137,3.157,1.336,3.744,2.994
			c-1.088,0.411-3.869-0.876-3.744,0.747c1.514,0.051,2.774,1.264,4.493,1.5c1.403,0.189,1.656-0.811,2.994-0.751
			c1.013,0.048,2.51,0.91,2.992,1.5c0.202,0.244,1.231-0.191,1.498,0c1.228,0.861,1.667,3.139,2.249,3.742c0,0.996,0,1.995,0,2.994
			c0.125,1.119-0.271,2.761,0.743,2.994c0.127-0.87,1.186-0.813,2.249-0.747c0.319,1.423,1.612,1.881,1.5,3.739
			c-0.709,2.287-3.645,2.347-3.748,5.24c-0.519,2.974,0.889,3.146,1.503,4.494c0.698,1.543,0.237,3.25,0.746,4.49
			c0.242,0.594,2.058,0.749,1.5,2.245c2.226,0.27,3.795,1.192,5.236,2.246c1.453-1.791,1.204-5.285,3.743-5.987
			c0-1.25,0-2.495,0-3.744c0.751,0.004,0.894-0.604,1.499-0.747c1.247,0,2.495,0,3.74,0c1.718-2.04,3.075-4.448,5.991-5.242
			c1.465-0.398,2.195,0.226,2.996-0.749c0.177-0.219,1.222,0.128,1.494,0c0.095-0.044-0.07-0.66,0-0.75
			c0.181-0.216,1.226,0.132,1.497,0C174.539,42.321,174.373,41.705,174.445,41.616z"/>
		<path fill="#ECECEC" d="M68.896,22.902c0.205,0.094-0.172,1.324,0,1.499c0.715,0.716,2.767-0.699,2.996-0.752
			c1.383-0.298,2.075-0.379,2.992-0.746c1.562-0.624,3.258-0.865,2.995-2.993c-2.795,0.798-2.133-1.861-4.491-1.498
			c-0.04,0.957-0.96,1.037-0.749,2.245c-1.619-0.626-2.553-1.938-5.238-1.496c-0.321,1.427-2.14,1.354-1.498,3.742
			C66.766,23.193,68.077,22.52,68.896,22.902z"/>
		<path fill="#ECECEC" d="M175.193,48.352c-0.383,1.526,1.222,1.417,1.497,2.249c-0.137-0.416-0.718,0.507-0.747,0.749
			c-0.093,0.738,0.676,0.897,0.747,1.493c4.549,1.382,5.847-0.579,8.982-2.242C184.756,44.998,179.177,50.234,175.193,48.352z"/>
		<path fill="#ECECEC" d="M194.655,68.564c0.322,0.385,1.686-0.153,1.499,0.75c0.331,2.823-1.476,3.513-2.245,5.239
			c4.313-0.04,0.244,0.678,0,2.245c2.993-1.249,8.365-0.117,8.233-4.494c-1.287,0.042-1.919-0.575-2.246-1.497
			c0.077-3.07-2.993-2.994-2.246-6.738c-2.184,0.21-2.572-0.177-1.497-1.495c-0.748,0-1.499,0-2.246,0
			c-1.221,3.019,1.733,4.341,1.498,5.239C195.388,67.883,194.137,67.942,194.655,68.564z"/>
		<path fill="#ECECEC" d="M13.502,65.569c1.395-0.102,2.501-0.49,2.993-1.498C15.173,64.242,12.75,63.32,13.502,65.569z"/>
		<path fill="#ECECEC" d="M193.16,73.804c-0.437-2.428,0.509-3.481,0.748-5.24c-1.033,0.031-1.646-0.351-2.246-0.749
			c-0.653,1.096-0.599,2.899-2.994,2.248c0.067,2.795,0.84,2.131,0,4.491C190.958,75.096,190.871,73.26,193.16,73.804z"/>
		<path fill="#ECECEC" d="M363.83,84.284c4.165,0.583-1.768,2.221,0.751,3.742c3.226,0.73,2.178-2.813,4.49-2.994
			c0.735,1.013,1.995,1.494,2.992,2.245c-1.188-4.681,3.65-3.336,4.491-5.987c-0.58-0.166-0.867-0.628-0.748-1.497
			c-4.535,1.889-5.685-2.338-9.732-2.994c-0.368,2.361,1.351,2.642,0.75,5.239C365.832,82.788,364.038,82.745,363.83,84.284z"/>
		<path fill="#ECECEC" d="M211.127,89.525c-0.5,0-0.999,0-1.5,0c0,0.498,0,0.995,0,1.498c0.501,0,0.999,0,1.5,0
			C211.127,90.521,211.127,90.023,211.127,89.525z"/>
		<path fill="#ECECEC" d="M357.844,105.992c-4.98-0.737-6.643,1.843-8.985,3.742c2.933,0.918,2.66-1.228,3.746-1.494
			c0.807-0.204,1.125,0.845,2.245,0.746c1.332-0.116,1.957-2.485,3.741-1.497c0.431,1.316-0.903,4.399,0.747,4.491
			c0.181-1.065,1.235-1.263,1.5-2.246c1.728,0.229,0.832-2.159,2.244-2.245c1.71,2.087,3.965-1.02,5.989,0.751
			c1.179-3.777,1.802-8.026,0-11.232c1.316-0.18,1.704-1.285,1.499-2.991c-1.311-1.438-0.882-4.61-3.745-4.491
			c-1.688,4.586-0.557,15.014-6.738,12.727C360.443,104.602,359.156,105.31,357.844,105.992z"/>
		<path fill="#ECECEC" d="M209.627,94.765c0.501,0,0.999,0,1.5,0c0-0.998,0-1.997,0-2.998c-0.5,0-0.999,0-1.5,0
			C209.627,92.769,209.627,93.767,209.627,94.765z"/>
		<path fill="#ECECEC" d="M217.114,97.758c0.75-2.499-1.039-2.456-2.995-2.246C213.45,97.928,216.562,96.564,217.114,97.758z"/>
		<path fill="#ECECEC" d="M230.589,99.257c-0.501,0-1,0-1.5,0C224.991,99.05,230.736,101.362,230.589,99.257z"/>
		<path fill="#ECECEC" d="M92.102,112.73c0.748,0.912,0.006,2.03,1.498,2.245c0.817,0.117,1.749-1.161,2.246-1.497
			c-2.625-1.65-7.907-5.938-11.229-2.246c2.82-0.574,3.579,0.915,5.988,0.748C90.306,112.945,91.814,112.376,92.102,112.73z"/>
		<path fill="#ECECEC" d="M96.593,117.221c3.01,0.519,4.272-0.715,6.739-0.747c0.222-1.473-1.014-1.486-1.496-2.248
			c-2.532,0.87-3.197-0.528-4.494,0.75c0.458,0.043,0.888,0.113,0.749,0.749C98.083,116.713,96.78,116.407,96.593,117.221z"/>
		<path fill="#ECECEC" d="M339.128,153.899c0.444-2.797,0.899-5.585,3.743-5.987c0.354-2.349-2.017-1.979-2.243-3.742
			c0.228-1.768,2.598-1.394,2.243-3.742c-4.086,0.786,0.213-2.531-3.743-2.246c-0.319,1.424-1.61,1.879-1.496,3.741
			c-3.489,0.502-3.658,4.327-8.236,3.744c0.361,2.258-0.495,3.813,0,5.238c0.148,0.421,1.291-0.033,1.498,0.749
			c0.128,0.469-0.096,1.025,0,1.499C334.642,153.771,335.029,153.366,339.128,153.899z"/>
		<path fill="#ECECEC" d="M375.062,155.399c-0.384-0.382-0.35-1.95-0.747-2.246c-1.246-0.914-2.851-0.347-3.743-0.747
			c-0.288-0.13-0.39-1.363-0.752-1.5c-1.576-0.587-2.929,0.132-4.491-0.749c-0.627,0.574-1.468,0.267-2.246,0.749
			c-0.719,0.444-0.895,0.979-1.496,1.5c-0.767-0.987-0.732-2.764-1.5-3.743c-1.246,0-2.495,0-3.739,0
			c-0.033,2.771,1.148,4.338,2.243,5.985c2.962-1.352,7.858,1.761,5.991,5.242c3.407-0.916,2.936,2.054,5.989,1.497
			c1.727,0.227,0.827-2.164,2.245-2.249c2.131,1.609,3.917,3.568,6.737,4.494c0.296-3.542-3.077-3.415-2.248-7.484
			C376.354,156.099,375.558,155.899,375.062,155.399z"/>
		<path fill="#ECECEC" d="M378.805,180.85c-0.613-3.997-4.126-6.181-5.24-9.732c-0.382-1.217,0.083-1.565-0.748-2.246
			c-0.248-0.199,0.187-1.226,0-1.495c-0.433-0.622-1.274-0.525-1.499-1.499c-0.217-0.947,0.166-2.035,0-2.993
			c-4.69-0.202-1.192,7.789-4.491,8.981c-2.479-0.265-3.246-2.241-4.489-3.743c0.008-1.487,2.041-0.95,1.493-2.992
			c-1.47-1.023-4.273-0.717-5.986-1.499c-0.07,1.175-0.242,1.432-1.496,1.499c-1.874,0.1-2.047,2.934-3.743,2.992
			c0.123-1.623-2.658-0.339-3.746-0.747c-0.561,2.428-1.239,4.746-4.491,4.49c0.356,2.353-0.931,3.059-2.246,3.742
			c-1.829,0.666-3.245,1.745-5.987,1.499c-0.308,0.94-0.964,1.527-2.246,1.497c0.099,1.15-0.156,1.769-0.75,2.246
			c-0.297,0.238,2.356,3.713,0.75,3.742c-0.166-0.584-0.627-0.87-1.497-0.748c1.938,3.55,0.832,10.149,2.246,14.22
			c3.873,0.378,4.604-2.381,8.981-1.496c1.647-0.849,2.488-2.503,4.492-2.993c3.505,0.076,8.129-0.503,8.237,1.497
			c0.088,1.659,2.14,1.004,1.496,2.992c1.738-0.237,2.873,0.122,3.743,0.75c-0.595,2.592,0.831,3.162,1.497,4.492
			c1.946-0.745,4.503-0.163,6.735,0.747c0.637-1.61,1.843-2.646,4.495-2.244c-0.398-1.903,1.486-2.665,2.241-3.745
			c0.463-0.662,0.253-1.531,0.75-2.24c0.422-0.606,1.865-0.847,2.248-1.5c0.584-1.018,0.207-2.19,0.749-2.994
			c1.229-1.85,0.556-5.003,1.496-8.233C380.799,182.345,379.538,181.862,378.805,180.85z"/>
		<path fill="#ECECEC" d="M258.286,166.626c-1.003,2.74-3.062,4.426-5.991,5.24c1.175,5.104-3.021,10.972,1.498,12.726
			c0.678-1.32,2.756-1.238,2.995-2.993c-0.165-2.412,1.324-3.169,0.748-5.99c1.478-1.766,1.765-4.724,2.246-7.485
			C259.624,167.282,258.952,166.957,258.286,166.626z"/>
		<path fill="#ECECEC" d="M401.26,195.823c0.042,2.449,2.126,2.854,1.493,5.985c-0.305,0.941-0.96,1.53-2.24,1.497
			c-0.62,2.114,1.054,1.94,0.747,3.742c-1.485-0.008-0.95-2.041-2.992-1.496c-0.645,5.348-8.121,3.859-8.238,9.731
			c2.125,0.78,3.121,0.78,5.24,0c0.646-1.385,1.216-2.941,2.249-2.996c0.962-0.048,0.979-1.699,1.497-2.244
			c3.127-3.304,8.428-4.343,8.982-9.73C403.653,202.94,405.385,195.616,401.26,195.823z"/>
		<path fill="#ECECEC" d="M366.826,206.301c0,1.497,0,2.993,0,4.491c3.717,0.723,4.863-1.128,4.491-4.491
			C369.82,206.301,368.323,206.301,366.826,206.301z"/>
		<path fill="#ECECEC" d="M143.005,149.409c-3.526-0.967-4.636-4.349-9.73-3.742c-0.081-1.413-2.474-0.519-2.246-2.247
			c-3.284-1.007-4.449,0.501-6.736-1.498c1.548-2.281-1.241-5.399-2.248-7.484c-2.094-0.862-3.892-0.862-5.988,0
			c-0.712-4.03-4.439-5.043-6.736-7.487c-1.757,0.241-2.809,1.186-5.238,0.749c-1.504-0.796-1.805-1.66-2.995-2.245
			c0.079,0.039-0.751,1.177-1.499,0.749c-0.376-0.215,0.147-1.77-0.75-1.498c-0.634,1.609-1.841,2.646-4.491,2.245
			c-0.104,1.396-0.491,2.503-1.497,2.993c-2.106-1.52-3.072-1.341-5.987-0.745c-2.106-1.39-1.426-5.563-1.498-8.984
			c-1.552-0.445-4.919,0.925-5.239-0.749c0.062-2.681,1.164-4.325,1.497-6.735c-1.497,0-2.996,0-4.493,0
			c0.072,3.064-2.585,3.398-4.491,4.49c-0.892-1.354-2.177-2.452-2.245-3.742c-0.042-0.849-0.531-0.354-0.747-0.748
			c-1.27-2.282-0.205-3.592,0-5.989c1.244-2.353-2.785-3.059-0.75-3.743c1.014,0.236,1.43,1.066,2.996,0.749
			c0.685-3.153,4.258-1.815,6.735-2.245c1.372-0.238,3.729-1.509,4.495-1.496c0.027,0-0.04,0.708,0,0.746
			c0.499,0.499,2.378-0.382,2.992,0c1.59,1.905,0.185,6.804,3.743,6.736c2.046-2.59-0.479-5.614,0-8.98
			c0.585-0.165,0.87-0.627,0.749-1.5c1.94-1.052,3.456-2.532,5.24-3.742c0.229-1.75,1.465-3.092,0-4.492
			c3.032,0.853,1.673-1.194,2.245-2.241c0.121-0.226,1.308,0.188,1.498,0c0.251-0.255-0.245-1.244,0-1.5
			c1.1-1.152,2.788-1.89,4.493-1.497c-0.971-3.962,1.764-4.226,3.742-5.239c1.181,0.065,0.587,1.908,2.245,1.497
			c0.848-0.842,2.371-1.291,3.743-2.246c1.289-0.899,3.604-1.479,2.245-2.993c-0.682-2.037-1.389,1.994-3.742,0.749
			c-0.307-1.483-1.788-2.03-1.497-2.998c0.101-0.327,2.396-0.033,1.497-1.497c0.536-2.033-3.529,0.539-2.995-1.494
			c2.099-0.896,5.165-0.823,8.234-0.75c0.715-0.391,2.484-3.357,2.993-1.498c-1.128,2.367-4.046,2.941-3.742,6.738
			c3.158-1.826,3.775,1.795,8.233,0.75c0.601-2.6-1.114-2.879-0.747-5.239c-0.882-0.12-2.127,0.127-2.248-0.75
			c-0.327-2.572,0.296-4.194,0.748-5.988c-1.805,0.522-2.203-1.593-2.993-2.245c-1.03-0.854-2.156-1.145-2.994-2.245
			c-0.196-3.047-1.409-5.08-2.245-7.485c-2.982-0.239-2.026,3.46-4.492,3.741c-0.01-0.989-1.312-0.685-1.496-1.499
			c0-1.245,0-2.494,0-3.739c-2.859-0.886-4.603-2.888-8.984-2.249c0.126,4.37-1.306,7.181-0.75,11.979
			c-1.523,0.222-1.993,1.5-2.993,2.246c-0.445,1.549,0.925,4.918-0.749,5.238c-2.554-1.174-2.045-3.185-1.497-5.986
			c-1.247,0-2.495,0-3.743,0c-0.816-3.173-5.151-2.835-6.734-5.24c-2.49-3.174,1.714-6.574,2.992-8.236
			c1.354-1.757,2.242-2.944,4.491-2.993c1.657-1.076-0.941-1.825,0.749-2.244c1.471,0.223,1.484-1.012,2.246-1.499
			c2.286,0.542,2.729-0.766,4.491-0.747c1.064-2.191-0.177-1.757,0-2.995c0.139-0.954,0.886-3.615,1.498-3.744
			c3.69-0.379,4.944,1.54,5.99,2.995c1.564,2.178,1.386,1.731,0,2.994c-1.317,1.196-1.902,2.157-2.996,2.995
			c-0.605,0.464-1.345,0.597-1.495,1.496c5.746-0.259,5.956,5.021,11.228,5.239c-0.754-2.497,1.038-2.453,2.994-2.245
			c0.933-2.734-3.396-4.008-1.498-5.239c1.44,0.307,0.59,2.902,2.994,2.245c-0.124-2.368,1.989-2.502,1.496-5.239
			c-3.262-0.727-6.232-1.752-5.238-6.736c-1.797-0.698-1.983-3.009-5.239-2.245c0.032-1.031-0.354-1.645-0.748-2.249
			c-2.673-0.569-5.142,2.321-5.988-0.749c-0.741-2.982,2.236-2.252,1.495-5.24c-2.767-0.476-7.457,0.972-8.982-0.746
			c-0.704-2.041-3.775-1.715-5.988-2.245c-0.87,2.48,1.887,2.699,2.245,2.991c0.206,0.167-0.104,1.231,0,1.499
			c0.26,0.646,0.398,0.977,0.749,1.495c-3.791-0.793-3.777,2.215-5.988,2.995c0.455-3.749-1.676-0.642-3.744-2.242
			c0.45,1.943-0.302,2.69-2.246,2.242c-0.373,3.62,4.398,2.09,5.99,3.746c-0.235,1.012-1.064,1.43-0.748,2.994
			c0.319,1.176,2.354,0.639,1.497,2.994c-0.916,1.201-2.814-0.043-4.494,0c-0.759,0.02-0.876,0.614-1.498,0.75
			c-2.548,0.554-4.454-0.284-5.237-1.499c3.845,1.658,2.293-3.705,4.489-1.497c0.004-2.498-2.436-2.557-2.245-5.239
			c-0.114-1.863,1.176-2.318,1.497-3.744c-3.713-0.721-3.992,1.995-6.736,2.247c-1.74-1.006-5.592,0.105-5.239-2.994
			c-3.417,0.419-4.662-1.331-8.236-0.752c-0.667,2.33-2.499,3.49-2.992,5.989c0.942,0.308,1.531,0.967,1.496,2.248
			c3.329,0.819,3.961-3.308,5.988-1.497c-2.263,2.192,1.532,1.64,0.749,4.491c-3.828,0.42-4.938-2.714-8.233-0.749
			c-0.917-1.08-2.858-1.136-3.744-2.245c0.516,2.01-1.547,1.446-2.246,2.245c-2.961-0.668-5.145,0.923-8.232,0.749
			c-0.958-0.057-1.052-0.687-2.248-0.749c-0.646-0.034-0.604-0.716-0.748-0.749c-2.523-0.566-6.146-0.152-9.73-0.75
			c-2.653-0.439-5.283-1.65-6.736-1.496c-0.878,0.091-1.728,0.979-2.245,1.496c-0.474,0.475-2.374-0.308-2.995,0
			c-0.591,0.294-1.213,1.532-2.246,2.247c-1.281,0.883-1.823,1.879-3.743,1.497c-0.036,2.532,1.746,3.248,2.994,4.49
			c-2.948-0.201-5.2,0.287-5.987,2.245c0.872,0.126,0.814,1.186,0.748,2.245c1.315,0.432,4.4-0.901,4.491,0.749
			c-3.386,0.854-6.386,2.101-6.736,5.99c0.585,0.167,0.87,0.627,0.749,1.498c3.04-0.214,1.688,0.273,1.496,2.245
			c2.152-0.154,3.804,0.188,4.491,1.497c-2.726,0.797-5.082,2.799-6.736,3.743c-0.955,0.544-2.173,0.133-2.245,1.497
			c5.488-0.249,8.509-2.972,12.726-4.49c0.245-0.981,0.955-1.573,1.498-2.246c0.826-1.027,1.431-2.313,2.247-2.245
			c0.157,0.013,0.164,2.461,1.497,1.497c-0.496-1.977,1.838-0.762,2.994-1.497c1.086-0.696,1.012-2.146,2.245-2.245
			c0.02-0.004-0.031,0.715,0,0.748c0.495,0.494,1.391,0.618,2.246,0.746c1.959,0.301,3.275,0.726,3.742,0.752
			c1.08,0.056,0.821,1.764,1.498,2.245c0.292,0.206,1.141-0.09,1.497,0c1.482,0.372,0.126,1.776,0.748,2.994
			c0.093,0.179,1.31,0.587,1.497,0.748c1.718,1.486,0.032,2.945,0,4.49c-0.022,1.132-0.556,2.32,1.497,2.994
			c-0.052-2.546-0.232-5.222,1.499-5.986c-0.855,2.502,1.127,3.44,1.495,3.742c0.207,0.17-0.106,1.23,0,1.496
			c1.013,2.529-0.729,0.321-0.746,2.997c0.229,1.763,2.6,1.391,2.244,3.742c0.068,4.755-2.305,9.57-1.498,14.223
			c0.187,1.068,1.25,1.255,1.498,2.246c0.102,0.41-0.197,1.126,0,1.498c0.416,0.777,2.847,1.767,1.496,2.994
			c0.996,0.749,2.787,0.707,2.997,2.245c0.955,2.197,0.801,3.174,1.496,3.744c0.243,0.2-0.188,1.226,0,1.496
			c0.622,0.893,1.747,0.499,0.749,1.496c0.042-0.042,0.608,1.993,0.747,2.245c0.326,0.593,1.829,0.921,2.245,1.499
			c0.959,1.333-0.213,2.381,1.499,2.994c0.672-5.664-3.37-6.611-3.744-11.228c1.568,0.7,2.078,2.538,2.995,3.744
			c1.173,1.535,3.545,3.188,2.994,5.237c1.932,1.204,3.289,3.135,3.742,5.241c0.161,0.734-0.783,0.905-0.75,1.495
			c0.012,0.199,1.33,0.602,0.75,1.499c3.885,1.607,5.899,5.079,11.977,4.491c0.133,2.282,2.46,1.523,3.743,2.246
			c0.477,0.268,0.855,1.134,1.497,1.499c0.866,0.491,1.542,0.871,2.994,0.747c0.9,1.326,1.336,3.696,2.249,3.743
			c0.865,0.046,0.332,0.481,0.748,0.75c1.759,1.138,2.872,2.628,4.489,2.992c0.364-0.884,0.799-1.694,1.498-2.246
			c0.082,1.416,2.478,0.522,2.245,2.246c0,2,0,3.994,0,5.99c-1.766,0.229-1.392,2.599-3.743,2.246
			c0.302,3.543-1.335,5.149-0.747,8.981c2.659,2.83,4.18,6.797,5.238,11.229c4.377,3.296,8.308,5.856,8.985,11.229
			c0.164,1.319-0.57,2.241-0.75,3.743c-0.184,1.506,0.278,4.961,0,5.24c-1.642,1.64,0.985,1.571-0.751,2.994
			c-0.801,0.654,0.844,3.597,0.751,4.49c-0.192,1.858-1.396,3.261-1.499,5.24c-0.026,0.521-0.752,0.77-0.75,0.749
			c-0.115,1.082,0.638,2.652,0.75,3.741c0.373,3.615,0.13,7.088-0.75,10.481c0.913,0.084,1.774,0.226,1.497,1.497
			c0.643,2.385-0.65,2.841-1.497,3.741c2.622,1.625,2.872,5.616,5.243,7.484c1.471,0.226,1.482-1.011,2.246-1.495
			c0.067,2.042-1.248,1.507,0,2.994c1.414-0.169,1.648,0.843,2.993,0.747c-0.536-2.032,3.529,0.538,2.994-1.496
			c-2.173-0.823-3.597-2.393-5.239-3.743c2.24-0.494-0.717-1.6,0-2.993c1.647-0.596,0.971-3.52,2.993-3.744
			c0.405-2.649-2.652-1.841-2.245-4.492c2.122-0.765,4.082-4.354,2.245-6.735c3.391,1.141,1.617-2.871,2.995-3.744
			c3.727,0.981,3.188-2.305,5.987-2.245c0.642-1.746-2.617-3.228-0.749-3.743c1.247,0,2.495,0,3.743,0
			c0.962-5.279,5.759-6.716,5.242-13.472c2.256-2.234,5.144-3.84,8.982-4.494c0.543-4.194,3.103-6.377,2.245-11.978
			C140.155,157.04,143.463,155.11,143.005,149.409z M89.109,79.793c-2.1-1.298-0.705-1.962-0.75-4.49
			C91.37,74.865,87.987,77.516,89.109,79.793z M95.845,74.554c0,0.996,0,1.995,0,2.993c-1.093-0.653-2.899-0.597-2.246-2.993
			c-0.5,0-0.997,0-1.498,0C92.294,72.799,95.393,74.123,95.845,74.554z M85.366,71.56c2.361-0.368,2.644,1.348,5.238,0.745
			c-1.128,2.093-3.229,1.337-4.491,0c-1.106,0.39-1.887,1.108-2.992,1.499C80.893,72.927,85.575,72.872,85.366,71.56z
			 M88.359,27.394c1.112-0.883,3.346-0.647,2.995-2.994c2.994,0.248,4.154-1.334,7.484-0.752c-0.368,2.129-3.912,1.081-2.993,4.495
			c-1.016-0.232-0.621-1.877-0.749-2.996c-0.977,0.115-1.592,0.283-2.246,0.747c-0.204,0.146-1.44,1.352-1.497,1.5
			c-0.54,1.474,1.131,3.274,0,3.743c0.11,1.636,1.885,1.606,3.743,1.496c-0.301,1.946-2.233,2.26-2.246,4.494
			c-0.875-0.463-1.093-5.279-2.994-2.247C88.236,33.502,88.281,30.466,88.359,27.394z M65.157,37.873
			c-0.646-0.606-0.447-2.051-1.499-2.246c0.555-1.703,5.73,2.153,6.735,0c2.242,0.492-0.714,1.599,0,2.994
			C69.429,37.59,67.142,37.88,65.157,37.873z"/>
		<path fill="#ECECEC" d="M393.027,54.341c0.367-3.356-4.077-4.621-0.749-6.738c3.052,0.191,3.696,2.791,7.487,2.247
			c-0.364-2.357,2.297-1.693,1.495-4.492c-1.736-0.6-4.252-2.396-5.99-0.748c-0.668-3.15-4.247-1.812-6.734-2.993
			c-0.24-0.114-0.487-1.302-0.749-1.499c-0.452-0.34-1.581,0.117-1.498-0.747c-3.197,0.619-5.918-0.767-8.234-0.75
			c-2.357,0.017-2.314,2.175-3.738,0.75c-1.498-1.493-6.512,0.588-7.488,0.747c-0.965-1.284-1.549-2.942-3.742-2.991
			c-1.745,0-3.496,0-5.239,0c-3.18-2.56-8.617-2.859-13.477-3.744c-2.027,0.466-1.862,3.127-4.492,2.994
			c-2.286,0.54-2.727-0.766-4.489-0.749c-1.068,0.18-1.264,1.232-2.248,1.499c-0.162-2.831-2.352-3.637-2.992-5.989
			c-3.994-0.749-5.208,1.276-7.487,2.245c-2.095-2.014-8.189-1.914-11.229-0.75c0.968-2.026,3.33-2.66,2.995-5.99
			c-1.419-1.327-4.943-0.545-7.485-0.749c-0.165-0.583-0.627-0.87-1.497-0.747c-1.427-0.317-1.356-2.14-3.743-1.5
			c-1.925,0.075-1.07,2.923-2.995,2.995c-3.999,0.742-9.029,0.454-11.977,2.249c-0.714,1.393,2.243,2.499,0,2.994
			c-2.616-0.308-4.48,1.013-5.24,1.497c-0.543,0.346-1.028,0.363-1.494,0.749c-2.33,1.915-1.071,2.539-2.996,0.749
			c-2.341-2.18-6.681-0.572-8.984,0.748c-0.876,1.983,1.438,4.406,0,4.49c-3.354,1.067-6.404-2.018-8.233,0
			c0.428,0.679,3.089,2.758,1.498,2.994c-0.795-1.697-4.706-0.284-6.736-0.75c-0.125,0.875-1.184,0.815-2.247,0.75
			c-0.59,1.654-2.617,1.873-3.739,2.994c0.167-2.665-1.079-3.913-3.746-3.744c-0.542,2.292,1.294,2.203,0.75,4.491
			c-2.979-0.424-2.638,2.667-4.49,2.996c-0.94,0.165-1.483-1.371-2.995-0.747c-0.297,1.286,1.11,1.918,0,2.246
			c-0.741-0.593-2.854-3.521-1.496-3.746c2.341-0.151,5.491,0.506,6.735-0.749c0.072-2.622-3.29-3.688-4.491-4.491
			c-1.953-1.301-4.704-1.628-7.487-1.496c0-0.749,0-1.496,0-2.245c-2.897-0.465-3.081-0.621-5.238,0.75
			c-0.167-0.582-0.021-1.476-0.75-1.498c-0.626,1.457-1.809,0.964-2.995,1.498c-0.244,0.111-0.466,1.312-0.747,1.496
			c-0.712,0.473-1.638,0.333-2.246,0.75c-0.258,0.176-0.539,1.237-0.749,1.496c-0.207,0.252-1.271-0.236-1.496,0
			c-0.091,0.095-0.753,2.338-0.751,2.245c-0.071,1.375-1.628,1.741-2.244,2.246c-0.242,0.201,0.18,1.229,0,1.5
			c-0.616,0.923-1.705,1.489-2.245,2.246c-0.692,0.961-0.868,1.892-1.495,2.992c-3.204-0.208-3.818,2.174-5.244,3.744
			c2.249,0.745,0.63,5.357,3.747,5.239c2.187,0.624,2.426-4.463,3.741-2.245c-0.431,3.422,1.834,4.155,2.248,6.735
			c4.135,0.144,1.728-6.254,5.237-6.735c0.36-2.357-2.299-1.697-1.498-4.492c0.873-0.125,0.815-1.186,0.749-2.246
			c1.558-0.438,2.42-1.574,3.742-2.245c-0.109-1.857-0.136-3.633,1.497-3.745c0.884,0.366,1.7,0.8,2.246,1.498
			c-1.248,2.992-5.41,3.073-4.491,8.235c0.504,0.726,1.923,0.062,3.744,0.748c1.245,0.467,3.975,0.432,2.245,2.246
			c-0.167-0.585-0.625-0.869-1.498-0.749c-0.235,1.012-1.065,1.431-0.747,2.994c-1.526-1.504-1.468,0.332-2.996,0.746
			c-0.782,1.715-0.475,4.518-1.496,5.992c-2.44-2.209-4.321,0.833-5.987,0.746c-0.681-0.035-1.427-0.461-2.246-0.746
			c-1.134-0.4-2.033-0.248-2.244-1.499c0.078-1.86,1.401-2.315,0-3.744c-4.835-0.279-0.128,5.679-1.5,5.988
			c-2.287-0.541-2.729,0.769-4.493,0.751c-0.009,2.232-1.944,2.542-2.245,4.49c-2.891-0.065-2.47,3.085-3.741,1.497
			c-0.762-0.952-1.69,2.946-2.246,2.246c-0.082-1.831-2.476-0.161-2.247,0.749c1.542,0.954,3.798,1.192,3.745,3.742
			c0.11,1.856-0.389,3.108-1.498,3.742c-2.896,0.403-3.655-1.334-6.736-0.749c-0.898,2.955-0.357,5.141-0.749,9.729
			c2.824,1.997,4.976,0.913,8.982,0.75c0.625-1.617,1.938-2.553,1.497-5.241c1.323-0.67,2.186-1.808,3.741-2.245
			c0.128-1.121-0.267-2.763,0.749-2.994c2.409,2.033,4.44-1.102,7.487-0.747c-0.56,2.303,2.055,1.438,1.497,3.741
			c1.881,1.113,4.123,1.863,5.239,3.744c-0.11,0.884-1.333,1.695,0,2.245c1.825-1.969,0.421-2.521,2.246-4.494
			c-2.37-0.622-3.805-2.182-5.239-3.741c0.014-1.12-2.782-3.061-0.747-3.742c1.508-0.316,0.99,0.745,1.493,1.496
			c0.553,0.819,0.953,1.451,1.499,2.246c0.984,0.766,2.76,0.734,3.743,1.499c-0.414,2.94,2.007,4.093,2.993,5.987
			c0.469,0.902-0.512,3.054,1.499,2.995c0.084-0.915,0.225-1.774,1.497-1.5c-0.235-1.01-1.066-1.428-0.75-2.991
			c0.419-1.081,1.17-1.826,2.246-2.249c-0.365-2.366,0.347-3.856,0.75-4.489c0.939-1.475,0.587-4.354,2.996-3.742
			c1.05,0.196,0.853,1.641,1.497,2.245c2.356,0.36,1.691-2.298,4.489-1.496c0.452,1.294,3.551-0.059,3.742,1.496
			c0.04,0.958,0.96,1.036,0.749,2.246c-1.811,1.437-6.016,0.476-8.98,0.747c-1.255,0.994-1.598,2.898-4.493,2.25
			c0,1.746,0,3.489,0,5.239c2.012-0.515,1.447,1.547,2.248,2.246c4.157-0.208,5.548,1.201,8.981,0
			c0.018,3.759-0.707,6.777-2.996,8.233c-1.485-2.135-3.613,0.188-5.237,0c-0.045-0.006,0.043-0.702,0-0.749
			c-0.669-0.667-2.958-0.243-3.746-0.75c-1.582-1.009-3.443-1.355-5.239-1.496c-1.037,0.459-0.112,2.883-1.499,2.994
			c-1.663-0.578-4.059-0.432-4.49-2.246c-2.665,0.168-4.485-0.506-5.239-2.244c1.483-1.419,0.362-3.539,0-5.244
			c-2.868,1.229-6.847,0.167-9.733,0.75c-2.484,0.501-3.99,2.135-5.987,2.247c-2.117,0.614-1.938-1.055-3.741-0.749
			c-1.063,3.676-5.358,4.122-4.492,9.729c-1.53,0.717-2.962,1.531-4.492,2.246c0.74,2.985-2.238,2.254-1.498,5.241
			c-1.094,0.648-2.372,1.122-2.245,2.992c1.699,3.746,0.201,8.622-0.75,11.979c0.955-0.042,0.409,0.883,0.75,1.495
			c0.224,0.408,1.186,1.073,1.496,1.5c0.81,1.089,1.584,1.794,2.247,2.99c0.587,0.554,0.244,1.571,0.747,2.25
			c0.975,1.311,3.657,1.63,3.745,3.742c4.47-0.053,5.722-0.906,9.73,0c2.252-0.74,3.34-2.65,6.734-2.245
			c1.541,0.208,1.494,1.999,2.247,2.993c2.353,0.369,1.979-2.58,3.746-0.749c1.289,2.543,0.519,5.485,0,8.233
			c1.003,2.861,3.607,4.096,4.489,6.739c0.202,0.604-0.032,1.605,0,2.244c0.03,0.569,0.741,0.707,0.747,0.75
			c0.606,4.014-1.075,5.772-1.493,8.232c-0.43,2.502,0.319,4.402,0,6.736c2.769,2.468,3.453,7.024,3.74,11.978
			c2.1,0.646,1.594,3.897,2.995,5.239c0,1.249,0,2.496,0,3.744c4.294,0.339,5.682-1.066,8.984,0
			c3.427-3.557,8.468-5.502,8.232-12.726c0.877-1.119,3.11-0.881,2.992-2.993c0.101-1.846,0.115-3.608-0.746-4.491
			c2.533-1.959,4.745-4.235,7.486-5.989c0.303-6.044-0.659-10.819-2.25-14.971c0.758,0.155,0.501-0.371,0.75-0.749
			c0.136-0.199,0.74-0.73,0.754-0.75c0.505-0.988,0.116-2.129,0.747-2.994c0.144-0.2,1.247,0.114,1.497,0
			c0.157-0.068,0.59-1.327,0.748-1.497c1.477-1.581,6.674-6.272,6.735-7.485c0.042-0.771,0.634-0.445,0.75-0.749
			c0.516-1.35,0.24-2.951,0.747-4.494c-0.053,0.164,0.688-0.654,0.749-0.745c0.75-1.128,0.935-2.114,0.75-3.745
			c-2.851,0.398-4.926,1.566-7.486,2.248c-1.609-0.637-2.647-1.842-2.245-4.49c-2.109-0.558-2.762-1.775-3.745-2.998
			c-0.95-1.186-1.803-2.548-2.245-3.74c-0.777-2.108-1.06-4.554-1.496-5.24c-0.909-1.426-1.41-1.322-1.499-2.995
			c-0.042-0.837-0.547-0.367-0.746-0.749c-0.542-1.043-0.199-1.993-0.749-2.995c-0.347-0.634-1.979-0.718-1.498-2.246
			c0.842-0.075,1.165,1.089,1.498,0c0.989,0.007,0.685,1.313,1.494,1.498c-0.12,2.367,1.992,2.502,1.499,5.241
			c0.798,0.06,1.203,0.151,1.496,0.747c0.831,1.688,1.353,3.68,2.245,5.24c0.1,0.172,0.536,0.41,0.754,0.749
			c0.903,1.425,1.827,2.413,2.244,3.741c-0.323,2.663,0.979,2.438,1.496,3.747c0.315,0.8-0.282,2.186,0.747,2.242
			c1.492-1.353,3.521-1.471,5.241-2.242c1.584-0.716,2.886-2.714,5.239-2.249c0.549-1.728,1.025-2.083,2.246-2.993
			c1.078-0.803,2.388-0.749,2.993-1.496c0.239-0.29-0.157-1.147,0-1.499c0.126-0.276,1.337-0.408,1.497-0.747
			c0.462-0.977,0.125-2.492,0.749-3.747c-0.535-1.507-4.909-3.004-2.993-4.488c3.296,1.359,5.663,1.779,9.731,0.747
			c1.76,1.736,4.532,2.456,4.49,5.989c1.748,1.12,3.225-0.251,3.744,0.75c0,1.495,0,2.994,0,4.489
			c0.85,1.646,2.503,2.488,2.993,4.489c0.188,3.56,2.295,5.196,2.993,8.237c2.353,1.245,3.061-2.786,3.747-0.752
			c0.169,1.329-0.757,3.752,1.494,2.998c1.64-0.11,1.606-1.887,1.496-3.743c-0.581-0.164-0.865-0.627-0.745-1.497
			c-0.882-0.118-2.127,0.127-2.245-0.749c1.066-1,1.066-4.243,0-5.24c0.752,0.156,0.495-0.372,0.745-0.75
			c0.856-1.28,1.534-1.399,2.245-2.244c0.666-0.786,0.855-3.518,2.996-2.995c0.444-3.051,2.188-4.797,5.24-5.243
			c2.733,2.013,5.458,4.025,5.238,8.983c1.857,0.973,3.635-1.667,3.743,0c0.979,3.014,1.949,6.037,1.498,10.479
			c0.575,1.714,4.873,3.557,2.248,5.991c-1.739-1.26-3.188-2.801-5.992-2.993c-0.964,2.202,1.425,2.604,2.246,3.742
			c0.834,1.156,1.439,2.504,2.249,3.741c0.481,0.742,0.282,1.385,0.747,2.246c0.216,0.411,1.204,1.052,1.497,1.497
			c0.673,1.035,1.329,2.777,2.245,3.745c0.983,1.039,3.679,0.994,3.743,2.246c0.058,1.074,1.324,1.257,1.498,2.246
			c4.096-0.107,7.119,0.864,10.479,1.497c0.839-1.078,0.807-1.83-0.746-2.249c0.317-2.065-2.794-0.699-2.998-2.243
			c-3.175,0.922-4.032,0.275-7.484,0c2.396-3.954-2.268-6.487-2.994-9.732c0.877-0.115,2.122,0.129,2.245-0.748
			c-1.887-1.686-2.125-4.061-2.996-5.987c-0.09-0.206-1.311-0.529-1.494-0.749c-0.601-0.719-0.916-1.527-1.498-2.25
			c0.585-3.079-1.147-3.839-0.747-6.732c2.112,1.076,3.438,3.354,4.49,4.49c0.578,0.623,1.039,1.488,2.245,1.497
			c3.152-2.085,4.743-4.117,4.491-7.485c-0.238-3.143-4.99-4.262-4.491-7.484c0.418-1.079,1.167-1.83,2.246-2.248
			c1.485,0.01,0.952,2.042,2.992,1.5c1.531-2.961,5.542-3.443,8.235-5.241c1.104-3.137,3.46-5.024,3.743-8.983
			c0.021-0.991-1.354-0.676-1.497-1.499c0.001,0.028,1.479-1.299,0.747-2.244c-1.282-0.961-2.94-1.548-2.993-3.741
			c-0.438-2.628,3.536-2.465,1.5-4.492c-1.321-0.432-4.4,0.903-4.494-0.749c0.676-1.319,1.676-2.317,2.994-2.994
			c-0.573,4.096,2.413,1.145,4.49,1.494c-1.065,3.494,1.739,2.519,2.248,3.745c0.667,1.623-0.775,2.992,0.747,4.49
			c1.417,0.168,1.651-0.842,2.996-0.746c0.769-4.513-1.677-5.81-2.996-8.238c3.019,0.523,1.27-3.722,2.996-4.489
			c0.997,0,1.999,0,2.996,0c1.601-1.64,2.327-4.16,4.487-5.239c0.032-0.748-0.036-1.499,0-2.245c0.026-0.479,0.756-0.83,0.751-0.749
			c0.126-1.84-1.852-3.914,0-5.24c0.595,1.708,0.424,2.456,0.747,3.743c0.107,0.432,0.747,0.735,0.747,0.75
			c0.382,1.548-1.227,4.874,1.5,4.49c3.01-0.787-0.407-3.387-0.751-5.24c0.882-0.116,2.126,0.129,2.25-0.748
			c-2.407-2.084-2.434-6.556-5.244-8.235c-0.125,1.12,0.271,2.765-0.745,2.996c0.115-1.863-1.179-2.318-1.498-3.745
			c-1.873-0.989-2.344,2.959-2.995,0.749c-1.86-2.133-0.959-1.713,0-2.995c0.418-0.558,0.449-1.74,0.75-2.245
			c0.881-1.493,1.007-3.057,2.245-2.993c4.104-0.115,8.065-0.08,11.226,0.749c0.167-0.586,0.631-0.869,1.498-0.749
			c0.572-2.174,1.186-4.309,2.998-5.24c1.438,1.516,3.011,1.738,5.236,0.749c-1.691,3.046-5.171,5.038-5.236,8.98
			c-0.054,2.987,2.96,5.228,3.743,8.236c1.002,0.234,2.806-2.096,2.991-2.248c0.247-0.202-0.197-1.232,0-1.494
			c0.264-0.347,1.314-0.317,1.499-0.75c0.477-1.115-0.041-3.257,0.749-4.493c-0.993-1.251-1.984-2.505-1.501-5.237
			c1.241-1.255,4.396-0.597,6.737-0.748C387.296,56.597,388.274,53.583,393.027,54.341z M262.775,114.975
			c-2,0.131-1.823-1.889-2.994-2.995c-1.023-0.964-4.102-1.188-3.739-3.74c4.433,0.053,3.488,5.488,8.979,4.49
			C264.603,113.809,263.853,114.555,262.775,114.975z"/>
	</g>
</g>
<g id="CUADRO">
	<rect x="122.706" y="20.702" fill="#FFFFFF" width="168.5" height="166.25"/>
	<path fill="#8B9933" d="M285.536,22.202c2.299,0,4.169,1.871,4.169,4.169v154.911c0,2.299-1.871,4.169-4.169,4.169H128.375
		c-2.299,0-4.169-1.871-4.169-4.169V26.372c0-2.299,1.871-4.169,4.169-4.169L285.536,22.202 M285.536,20.702H128.375
		c-3.118,0-5.669,2.551-5.669,5.669v154.911c0,3.117,2.551,5.669,5.669,5.669h157.161c3.117,0,5.669-2.552,5.669-5.669V26.372
		C291.206,23.253,288.654,20.702,285.536,20.702L285.536,20.702z"/>
</g>
<path id="MALETIN" fill="#B7B7B7" d="M226.48,47.332c0-2.757-2.243-5-5-5h-10.42l-1.707-2.986l-0.17-0.308
	c-0.911-1.651-2.045-3.706-4.704-3.706h-10c-2.79,0-3.988,2.311-4.868,4.004l-1.712,2.996h-10.42c-2.757,0-5,2.243-5,5v13
	c0,1.136,0.381,2.248,1,3.215v20.785c0,2.757,2.243,5,5,5h42c2.757,0,5-2.243,5-5V63.547c0.619-0.967,1-2.079,1-3.215L226.48,47.332
	L226.48,47.332z M191.389,40.251c0.943-1.816,1.622-2.919,3.091-2.919h10c1.409,0,2.012,0.966,2.953,2.673l1.327,2.327h-18.558
	L191.389,40.251z M174.48,47.332c0-1.654,1.347-3,3-3h44c1.654,0,3,1.346,3,3v13c0,1.745-1.43,3.576-3.123,4l-15.877,3.97v-1.968
	c0.003-1.631-1.336-2.978-3-3.002h-6.014c-1.649,0.022-2.989,1.37-2.986,3v1.97l-15.877-3.97c-1.691-0.424-3.123-2.255-3.123-4
	V47.332L174.48,47.332z M203.48,66.332v4.998c-0.001,0.685-0.612,1.541-1.201,1.693c-1.828,0.457-3.779,0.454-5.588,0.003
	c-0.599-0.155-1.21-1.013-1.211-1.694V66.33c-0.001-0.533,0.463-0.99,1-0.998h5.985C203.016,65.34,203.481,65.798,203.48,66.332z
	 M220.48,87.332h-42c-1.653,0-3-1.347-3-3V65.55c0.509,0.32,1.057,0.576,1.639,0.722l16.118,4.03
	c0.082,0.021,0.162,0.012,0.243,0.012v1.021c0.003,1.612,1.217,3.24,2.717,3.632c1.073,0.267,2.178,0.402,3.283,0.402
	c1.106,0,2.21-0.137,3.293-0.405c1.49-0.389,2.704-2.017,2.707-3.631v-1c0.08,0,0.162-0.01,0.243-0.03l16.119-4.03
	c0.582-0.146,1.129-0.4,1.638-0.722v18.782C223.48,85.986,222.134,87.332,220.48,87.332z"/>
<g>
	<circle fill="#8B9933" cx="232.308" cy="90.304" r="23.198"/>
</g>
<polygon id="STAR" fill="#FFFFFF" points="232.31,75.789 236.673,84.632 246.432,86.051 239.371,92.935 241.038,102.656 
	232.31,98.067 223.578,102.656 225.245,92.935 218.184,86.051 227.944,84.632 "/>
<g id="lazo_VERDE">
	<g>
		<polygon fill="#464C10" points="274.161,201.599 274.161,179.318 293.758,179 290.913,194.718 		"/>
		<path fill="#8A9932" d="M274.161,201.599c0.074,0.229,0.315,0.358,0.554,0.292c7.02-1.961,14.182-2.953,21.291-2.953
			c27.628,0,46.454,15.006,46.641,15.158c0.179,0.144,0.44,0.132,0.603-0.028c0.163-0.159,0.178-0.417,0.033-0.593l-19.929-24.145
			c2.212-1.683,14.743-10.63,32.268-11.874c0.203-0.017,0.372-0.162,0.41-0.359s-0.063-0.395-0.247-0.481
			c-14.936-7.076-59.29-11.558-59.737-11.601c-0.016-0.002-0.03-0.002-0.044-0.002c-0.216,0-0.403,0.15-0.443,0.36l-5.323,27.79
			c-0.021,0.116,0.008,0.235,0.075,0.333c0.068,0.098,0.175,0.165,0.294,0.185c0.06,0.012,0.138,0.042,0.148,0.01
			c-0.057,0.309-1.148,2.021-16.314,7.356C274.212,201.127,274.088,201.371,274.161,201.599z"/>
	</g>
	<g>
		<path fill="#8A9932" d="M46.21,192.487c14.933,7.076,59.917,11.558,60.364,11.602c0.142,0.01,0.292-0.043,0.387-0.153
			c0.096-0.108,0.13-0.258,0.093-0.397l-8.188-28.505c0.995-0.438,5.417-2.219,25.048-9.438c0.005-0.002,0.007-0.002,0.011-0.004
			l0.04-0.013c0.231-0.086,0.331-0.334,0.244-0.563c-0.075-0.201-0.299-0.313-0.517-0.274h-0.001l0,0
			c-0.023,0.005-0.047,0.011-0.069,0.018c-0.001,0-0.001,0-0.001,0.001l0,0c0,0,0,0-0.001,0l0,0c0,0,0,0-0.001,0h-0.001h-0.001l0,0
			c-0.004,0.002-0.001,0.001-0.001,0.001h-0.001l0,0c0,0.001-0.002,0.001-0.003,0.001c-8.198,3.013-16.433,4.539-24.472,4.539
			c-24.417,0-39.614-14.125-39.766-14.269c-0.086-0.082-0.199-0.123-0.313-0.123c-0.106,0-0.218,0.039-0.304,0.116
			c-0.175,0.158-0.194,0.424-0.044,0.605l19.927,24.143c-2.209,1.684-14.729,10.63-32.266,11.873
			c-0.203,0.016-0.371,0.162-0.409,0.359C45.926,192.201,46.026,192.4,46.21,192.487z"/>
		<polygon fill="#464C10" points="124.208,165.013 124.208,188.899 100.891,182.67 98.846,174.946 		"/>
	</g>
	<path fill="#8B9933" d="M98.645,174.89l10.242,37.782c0.057,0.215,0.272,0.358,0.49,0.328c0.434-0.055,43.792-5.53,90.279-16.871
		c15.303-3.733,31.846-5.625,49.161-5.625c23.927,0,41.023,3.694,41.193,3.73c0.117,0.027,0.245,0.005,0.345-0.063
		c0.104-0.066,0.354-0.294,0.375-0.415l7.053-38.782c0.025-0.143-0.021-0.291-0.124-0.393c-0.085-0.083-0.201-0.13-0.318-0.13
		c-0.027,0-0.055,0.003-0.082,0.009c-0.582,0.104-58.799,10.729-113.392,21.375c-15.517,3.024-30.453,4.56-44.398,4.56
		C113.558,180.395,98.781,174.945,98.645,174.89"/>
</g>
</svg>
