<?xml version="1.0" encoding="utf-8"?>
<!-- Generator: Adobe Illustrator 16.0.0, SVG Export Plug-In . SVG Version: 6.00 Build 0)  -->
<!DOCTYPE svg PUBLIC "-//W3C//DTD SVG 1.1//EN" "http://www.w3.org/Graphics/SVG/1.1/DTD/svg11.dtd">
<svg version="1.1" id="icons" xmlns="http://www.w3.org/2000/svg" xmlns:xlink="http://www.w3.org/1999/xlink" x="0px" y="0px"
	 width="89.5px" height="82px" viewBox="0 0 89.5 82" enable-background="new 0 0 89.5 82" xml:space="preserve">
<g id="ICONO_x5F_12_MESES">
	<g>
		<path fill="#8B9933" d="M55.891,13.64c0-2.757-2.244-5-5-5H40.47l-1.707-2.986l-0.17-0.308c-0.91-1.651-2.045-3.706-4.703-3.706
			h-10c-2.789,0-3.989,2.311-4.868,4.004L17.31,8.64H6.89c-2.757,0-5,2.243-5,5v13c0,1.136,0.381,2.248,1,3.215v20.786
			c0,2.756,2.243,5,5,5h42c2.756,0,5-2.244,5-5V29.854c0.618-0.967,1-2.079,1-3.215V13.64z M20.799,6.559
			c0.943-1.816,1.622-2.919,3.091-2.919h10c1.408,0,2.011,0.966,2.953,2.673l1.326,2.327H19.612L20.799,6.559z M3.89,13.64
			c0-1.654,1.346-3,3-3h44c1.653,0,3,1.346,3,3v13c0,1.745-1.431,3.576-3.123,4L34.89,34.61v-1.968c0.003-1.631-1.336-2.977-3-3.002
			h-6.014c-1.65,0.023-2.989,1.37-2.986,3v1.97L7.013,30.64c-1.692-0.424-3.123-2.255-3.123-4V13.64z M32.89,32.64v4.998
			c-0.002,0.685-0.613,1.541-1.201,1.694c-1.828,0.457-3.779,0.454-5.588,0.003c-0.598-0.156-1.209-1.013-1.211-1.695v-5.002
			c-0.001-0.533,0.463-0.99,1-0.998h5.984C32.426,31.647,32.891,32.105,32.89,32.64z M49.891,53.641h-42c-1.654,0-3-1.347-3-3
			V31.857c0.509,0.32,1.056,0.576,1.638,0.722l16.119,4.03c0.082,0.021,0.162,0.012,0.243,0.012v1.021
			c0.003,1.612,1.217,3.24,2.717,3.632c1.073,0.267,2.178,0.402,3.283,0.402s2.21-0.136,3.293-0.405
			c1.49-0.389,2.704-2.017,2.707-3.631v-1c0.08,0,0.162-0.01,0.242-0.03l16.119-4.03c0.582-0.146,1.13-0.401,1.64-0.722v18.783
			C52.891,52.294,51.544,53.641,49.891,53.641z"/>
	</g>
	<g id="ico_x5F_casa_x5F_VERDE">
		<g>
			<path fill="#8B9933" d="M82.646,50.85c0,7.918-11.02,19.213-17.844,26.648c-1.965,2.141-3.789,2.277-5.587,0.178
				c-6.386-7.455-17.98-18.844-17.98-26.826c0-10.333,9.27-18.707,20.706-18.707C73.378,32.143,82.646,40.517,82.646,50.85z"/>
			<path fill="#8B9933" d="M61.941,32.143c-0.188,0-0.373,0.008-0.56,0.012v46.974c1.106,0.214,2.238-0.343,3.421-1.631
				c6.825-7.436,17.846-18.73,17.846-26.648C82.646,40.517,73.378,32.143,61.941,32.143z"/>
		</g>
		<g>
			<polygon fill="#FFFFFF" points="61.732,43.139 56.703,46.738 51.669,50.336 51.669,60.243 58.895,60.243 58.895,51.85 
				64.566,51.85 64.566,60.243 71.793,60.243 71.793,50.336 66.762,46.738 			"/>
			<polyline fill="#FFFFFF" points="66.311,42.43 63.639,40.543 61.943,39.336 60.243,40.543 48.25,49.032 49.545,50.521 
				61.943,41.743 74.342,50.521 75.634,49.032 70.064,45.086 			"/>
		</g>
	</g>
</g>
</svg>
