{
    "prepare_queue": {
        "installed": [],
        "uninstalled": []
    },
    "config_munge": {
        "files": {}
    },
    "installed_plugins": {
        "cordova-plugin-secure-storage": {
            "PACKAGE_NAME": "com.santander.emprende"
        }
    },
    "dependent_plugins": {}
}