<?xml version="1.0" encoding="utf-8"?>
<!-- Generator: Adobe Illustrator 16.0.0, SVG Export Plug-In . SVG Version: 6.00 Build 0)  -->
<!DOCTYPE svg PUBLIC "-//W3C//DTD SVG 1.1//EN" "http://www.w3.org/Graphics/SVG/1.1/DTD/svg11.dtd">
<svg version="1.1" id="icons" xmlns="http://www.w3.org/2000/svg" xmlns:xlink="http://www.w3.org/1999/xlink" x="0px" y="0px"
	 width="56.693px" height="56.693px" viewBox="0 0 56.693 56.693" enable-background="new 0 0 56.693 56.693" xml:space="preserve">
<g>
	<path fill="#8B9933" d="M29.148,28.407V19.51c0-0.442-0.358-0.801-0.802-0.801s-0.802,0.359-0.802,0.801v8.896
		c-1.826,0.373-3.206,1.991-3.206,3.926c0,2.209,1.799,4.007,4.008,4.007s4.008-1.798,4.008-4.007
		C32.354,30.398,30.975,28.779,29.148,28.407z M28.347,34.737c-1.326,0-2.404-1.078-2.404-2.404c0-1.326,1.078-2.404,2.404-2.404
		s2.404,1.079,2.404,2.404C30.751,33.659,29.673,34.737,28.347,34.737z"/>
	<path fill="#8B9933" d="M42.437,21.747c0.033-0.024,0.07-0.037,0.101-0.067l2.073-2.072c0.938-0.937,0.938-2.462,0-3.4
		l-0.939-0.939c-0.938-0.938-2.463-0.938-3.399,0l-2.073,2.072c-0.078,0.078-0.137,0.168-0.175,0.264
		c-2.78-1.833-6.105-2.903-9.677-2.903c-9.722,0-17.631,7.909-17.631,17.631c0,9.722,7.909,17.631,17.631,17.631
		s17.631-7.91,17.631-17.631C45.978,28.363,44.658,24.697,42.437,21.747z M39.332,18.474l2.072-2.072
		c0.313-0.313,0.821-0.313,1.133,0l0.939,0.939c0.313,0.313,0.313,0.821,0,1.133l-2.051,2.051c-0.658-0.73-1.381-1.401-2.151-2.012
		C39.293,18.497,39.314,18.491,39.332,18.474z M28.347,48.361c-8.837,0-16.029-7.19-16.029-16.028s7.192-16.029,16.029-16.029
		s16.027,7.191,16.027,16.029S37.184,48.361,28.347,48.361z"/>
	<path fill="#8B9933" d="M25.141,13.099h6.419h0.01c1.318-0.028,2.39-1.107,2.387-2.404V9.892c-0.002-1.267-0.988-2.524-2.215-2.808
		c-2.229-0.473-4.547-0.476-6.804,0.003c-1.212,0.28-2.198,1.538-2.2,2.807v0.799C22.734,11.991,23.806,13.071,25.141,13.099z
		 M24.339,9.895c0.001-0.518,0.476-1.135,0.946-1.244c1.005-0.212,2.035-0.32,3.062-0.32s2.057,0.108,3.048,0.318
		c0.483,0.112,0.959,0.729,0.96,1.245v0.803c0,0.422-0.37,0.787-0.812,0.8h-6.385c-0.444-0.009-0.819-0.375-0.819-0.801V9.895z"/>
	<path fill="#8B9933" d="M16.325,31.532h-1.603c-0.443,0-0.802,0.358-0.802,0.801c0,0.442,0.358,0.801,0.802,0.801h1.603
		c0.443,0,0.802-0.359,0.802-0.801C17.127,31.89,16.769,31.532,16.325,31.532z"/>
	<path fill="#8B9933" d="M41.971,31.532h-1.603c-0.443,0-0.802,0.358-0.802,0.801c0,0.442,0.358,0.801,0.802,0.801h1.603
		c0.443,0,0.802-0.359,0.802-0.801C42.772,31.89,42.414,31.532,41.971,31.532z"/>
	<path fill="#8B9933" d="M28.347,43.553c-0.443,0-0.802,0.359-0.802,0.801v1.603c0,0.443,0.358,0.802,0.802,0.802
		s0.802-0.359,0.802-0.802v-1.603C29.148,43.912,28.79,43.553,28.347,43.553z"/>
</g>
</svg>
