<?xml version="1.0" encoding="utf-8"?>
<!-- Generator: Adobe Illustrator 16.0.0, SVG Export Plug-In . SVG Version: 6.00 Build 0)  -->
<!DOCTYPE svg PUBLIC "-//W3C//DTD SVG 1.1//EN" "http://www.w3.org/Graphics/SVG/1.1/DTD/svg11.dtd">
<svg version="1.1" id="Capa_1" xmlns="http://www.w3.org/2000/svg" xmlns:xlink="http://www.w3.org/1999/xlink" x="0px" y="0px"
	 width="96.117px" height="134.982px" viewBox="0 0 96.117 134.982" enable-background="new 0 0 96.117 134.982"
	 xml:space="preserve">
<g id="Medalla_x5F_VERDE_1_">
	<g>
		<path fill="#8B9931" d="M53.302,42.898c0.435-0.718,0.69-1.56,0.69-2.466c0-1.665-0.854-3.127-2.137-3.966v-1.333h12.401
			c1.378,0,2.5-1.055,2.5-2.35v-0.928c0-1.07-0.767-1.975-1.812-2.258l11.099-27.11H67.16h-1.916h-6.969h-1.916h-4.848h-4.038
			h-4.849h-1.916h-6.968h-1.917h-8.886l11.075,27.055c-1.175,0.191-2.073,1.156-2.073,2.313v0.928c0,1.295,1.122,2.35,2.501,2.35
			h12.401v1.333c-1.284,0.839-2.136,2.3-2.136,3.965c0,0.906,0.255,1.748,0.691,2.467 M38.113,17.854l5.554,13.568h-6.121h-0.849
			L25.59,4.286h6.97L38.113,17.854z M34.476,4.286h6.969l5.554,13.567l5.554,13.568h-6.12h-0.85L34.476,4.286z M50.331,4.286
			l11.106,27.136h-6.121h-0.849L43.36,4.286h5.292H50.331z M58.377,19.265l-3.484-8.513l2.646-6.466h6.969L58.377,19.265z
			 M66.424,4.286h6.971L63.07,29.506h-0.5l-3.234-7.902l1.536-3.75L66.424,4.286z M53.936,8.412l-1.688-4.126h3.377L53.936,8.412z
			 M50.087,33.85v4.797h-1.476V33.85H50.087z M65.257,31.857v0.928c0,0.519-0.446,0.938-1,0.938H51.855v-0.504h0.81h0.623h1.293
			h0.622h8.263l0.312-0.761l0.625-1.528C64.887,30.997,65.257,31.384,65.257,31.857z M34.441,33.723c-0.553,0-1-0.42-1-0.938v-0.928
			c0-0.52,0.447-0.94,1-0.94h0.134l0.631,1.542l0.312,0.761h8.263h0.622h1.293h0.623h0.523v0.504H34.441z M46.405,40.433
			c0-0.572,0.162-1.104,0.437-1.56v0.717h5.014v-0.721c0.276,0.456,0.439,0.989,0.439,1.563c0,0.901-0.396,1.708-1.018,2.257
			c-0.637-0.044-1.279-0.073-1.928-0.073c-0.649,0-1.292,0.029-1.93,0.073C46.799,42.14,46.405,41.334,46.405,40.433z"/>
		<rect x="20.618" y="-0.119" fill="#FFFFFF" width="57.748" height="4.845"/>
		<path fill="#8B9931" d="M53.441,42.571c-0.174,0.574-0.721,0.924-1.156,1.114c-0.758,0.369-1.801,0.598-2.956,0.598
			s-2.199-0.229-2.957-0.598c-0.755-0.368-1.226-0.967-1.223-1.438c0-0.563-0.084-0.532,0.671-0.9
			c0.915,1.683,1.611,1.468,2.766,1.468c1.155,0,3.328,0.22,4.568-0.816C53.911,42.365,53.441,42.008,53.441,42.571z"/>
	</g>
	<circle fill="#FFFFFF" stroke="#8A982F" stroke-width="2" stroke-miterlimit="10" cx="49.491" cy="86.351" r="42.227"/>
	<circle fill="#FFFFFF" stroke="#8A982F" stroke-width="2" stroke-miterlimit="10" cx="49.492" cy="86.351" r="35.583"/>
	<circle fill="#FFFFFF" stroke="#8A982F" stroke-width="2" stroke-miterlimit="10" cx="49.492" cy="86.351" r="21.544"/>
	<g>
		<rect x="30.992" y="73.542" fill="none" width="37" height="33"/>
		<path fill="#8A982F" d="M40.594,95.044c0-0.083-0.005-0.203-0.016-0.359c-0.011-0.156-0.016-0.271-0.016-0.344
			c0-1.469,0.294-2.755,0.883-3.859c0.588-1.104,1.565-2.188,2.93-3.25c0.552-0.438,1.417-1.013,2.594-1.727
			c1.177-0.713,2.031-1.269,2.563-1.664c0.417-0.313,0.745-0.708,0.983-1.188c0.239-0.479,0.359-0.988,0.359-1.53
			c0-0.833-0.3-1.489-0.898-1.97c-0.599-0.479-1.418-0.719-2.46-0.719c-0.667,0-1.263,0.107-1.789,0.32
			c-0.526,0.214-0.987,0.534-1.383,0.961H44.5c0.76,0,1.352,0.198,1.773,0.594c0.422,0.396,0.633,0.953,0.633,1.672
			c0,0.938-0.284,1.676-0.852,2.211c-0.568,0.537-1.341,0.806-2.32,0.806c-0.99,0-1.776-0.311-2.359-0.931S40.5,82.617,40.5,81.575
			c0-1.917,0.805-3.495,2.414-4.734s3.674-1.859,6.195-1.859c2.552,0,4.625,0.612,6.219,1.836c1.594,1.225,2.391,2.811,2.391,4.759
			c0,1.594-0.525,2.886-1.578,3.875c-1.052,0.989-2.886,1.875-5.5,2.655c-0.302,0.083-0.733,0.203-1.297,0.359
			c-2.563,0.719-4.005,1.558-4.328,2.516c0.708-0.375,1.401-0.655,2.078-0.844c0.677-0.188,1.359-0.281,2.046-0.281
			c0.698,0,1.567,0.128,2.609,0.384c1.042,0.255,1.729,0.383,2.063,0.383c0.449,0,0.785-0.181,1.008-0.539
			c0.225-0.359,0.337-0.903,0.337-1.633V88.17h3.266c0.011,0.136,0.019,0.281,0.022,0.438c0.006,0.156,0.009,0.38,0.009,0.672
			c0,2.198-0.442,3.801-1.328,4.806s-2.287,1.508-4.203,1.508c-1.155,0-2.563-0.25-4.219-0.75c-1.656-0.5-2.714-0.75-3.172-0.75
			c-0.427,0-0.769,0.076-1.023,0.227c-0.255,0.151-0.44,0.395-0.555,0.728h-3.36V95.044z"/>
	</g>
</g>
</svg>
