<?xml version="1.0" encoding="utf-8"?>
<!-- Generator: Adobe Illustrator 16.0.0, SVG Export Plug-In . SVG Version: 6.00 Build 0)  -->
<!DOCTYPE svg PUBLIC "-//W3C//DTD SVG 1.1//EN" "http://www.w3.org/Graphics/SVG/1.1/DTD/svg11.dtd">
<svg version="1.1" id="Capa_1" xmlns="http://www.w3.org/2000/svg" xmlns:xlink="http://www.w3.org/1999/xlink" x="0px" y="0px"
	 width="138px" height="113.875px" viewBox="0 0 138 113.875" enable-background="new 0 0 138 113.875" xml:space="preserve">
<g id="Orla_x5F_VERDE">
	<g>
		<path fill="#8B9931" d="M59.201,98.043c-2.428,0.023-3.613-0.125-5.968-0.723c-0.867-1.291,0.263-3.174,0.332-4.68
			c0.224-4.968-2.819-8.055-5.479-10.808c-0.686,1.485-1.326,3.39-1.328,5.043c-0.008,4.229,1.079,7.843,4.814,10.087
			c-4.12-1.178-8.152-2.441-11.456-4.504c2.77-5.958,0.587-14.023-3.154-17.109c-3.118,3.039-1.841,11.742,0.166,14.949
			c-3.132-1.762-5.888-3.938-8.134-6.663c4.25-3.071,4.394-13.062,0-16.392c-2.887,3.449-2.922,11.213-1.328,15.314
			c-3.014-3.399-5.661-7.191-7.47-11.894c2.596-2.019,6.731-5.228,6.972-9.545c0.133-2.378-1.162-4.141-1.162-4.141
			s-2.898,1.903-3.985,3.419c-1.497,2.096-2.271,4.677-3.32,6.845c-1.564-2.144-2.108-5.396-2.655-8.646
			c9.483,0.332,8.316-12.146,8.316-12.146s-3.978,1.875-5.578,3.845c-1.476,1.818-2.767,3.284-3.403,5.6
			c-0.718-2.494-1.094-5.562-1.162-9.187c4.555-1.003,9.079-2.994,8.632-8.825c-3.47,0.377-6.496,2.197-8.466,3.603
			c0.138-2.97,0.479-4.847,1.163-7.385c5.164,0.857,8.039-2.32,9.959-5.583c-2.795-1.061-6.856-0.056-8.631,0.9
			c0.316-1.817,0.936-3.307,1.825-4.503c3.148,1.347,7.215-0.107,8.467-2.521c-1.913-0.66-4.892-1.355-7.138-0.541
			c1.111-2.156,2.048-4.501,3.652-6.123c5.154-0.535,7.83-4.71,7.968-10.086c-4.562,0.793-10.078,3.701-9.13,9.906
			c-1.377,1.449-1.973,3.743-3.32,5.223c0.449-5.935-5.949-7.156-5.949-7.156s-0.216,8.537,4.455,10.759
			c-0.858,1.771-1.434,3.848-2.325,5.583c-0.242-2-0.742-3.218-1.66-4.323c-1.189-1.428-3.197-3.055-4.814-3.602
			c-1.236,5.05,1.007,10.849,5.313,12.067c-0.198,2.086-0.364,5.854-1.162,7.385c-1.367-2.534-3.712-5.745-6.973-5.043
			c-0.278,5.519,3.43,8.127,7.305,9.728c-0.169,2.703,0.43,4.576,0.498,7.022c-0.931-1.563-8.198-5.649-8.964-4.143
			c0.641,5.693,3.599,12.019,9.794,9.363c1.01,2.569,1.678,6.465,2.491,8.649c-2.141-1.909-6.336-1.801-9.629-1.082
			c0.841,4.619,7.066,6.653,11.123,4.504c2.149,3.971,4.707,8.463,6.973,11.705c-2.848-2.107-9.354-5.396-12.284,0.182
			c1.286,2.661,3.411,3.738,6.475,4.145c4.263,0.559,6.491-1.715,8.964-1.443c2.14,2.176,4.612,4.105,7.552,6.406
			c-9.598-1.504-11.204,4.22-11.204,4.22s0.929,2.263,3.985,2.7c7.608,1.099,9.468-4.678,9.96-5.043
			c0.675,0.408,4.435,2.858,8.964,4.684c-3.42,1.033-6.24,5.07-6.309,9.729c9.043-0.062,10.999-9.08,11.622-9.369
			c3.084,0.959,3.837,0.432,5.364,0.959"/>
		<polygon fill="#8B9931" points="69.418,91.661 71.866,96.621 77.341,97.417 73.38,101.277 74.314,106.729 69.418,104.156 
			64.521,106.729 65.456,101.277 61.496,97.417 66.97,96.621 		"/>
		<path fill="#8B9931" d="M78.923,98.043c2.429,0.023,3.613-0.125,5.97-0.723c0.866-1.291-0.265-3.174-0.332-4.68
			c-0.225-4.968,2.817-8.055,5.479-10.808c0.686,1.485,1.326,3.39,1.328,5.043c0.008,4.229-1.078,7.843-4.814,10.087
			c4.119-1.178,8.152-2.441,11.456-4.504c-2.771-5.958-0.587-14.023,3.153-17.109c3.119,3.039,1.842,11.742-0.166,14.949
			c3.133-1.762,5.889-3.938,8.135-6.663c-4.25-3.071-4.395-13.062,0-16.392c2.887,3.449,2.922,11.213,1.328,15.314
			c3.014-3.399,5.66-7.191,7.471-11.894c-2.596-2.019-6.73-5.228-6.973-9.545c-0.133-2.378,1.162-4.141,1.162-4.141
			s2.898,1.903,3.984,3.419c1.496,2.096,2.271,4.677,3.319,6.845c1.563-2.144,2.108-5.396,2.656-8.646
			c-9.483,0.332-8.315-12.146-8.315-12.146s3.977,1.875,5.576,3.845c1.477,1.818,2.768,3.284,3.403,5.6
			c0.719-2.494,1.094-5.562,1.161-9.187c-4.555-1.003-9.078-2.994-8.633-8.825c3.472,0.377,6.496,2.197,8.467,3.603
			c-0.139-2.97-0.479-4.847-1.162-7.385c-5.163,0.857-8.039-2.32-9.96-5.583c2.795-1.061,6.856-0.056,8.632,0.9
			c-0.314-1.817-0.936-3.307-1.825-4.503c-3.147,1.347-7.215-0.107-8.467-2.521c1.912-0.66,4.892-1.355,7.14-0.541
			c-1.111-2.156-2.05-4.501-3.652-6.123c-5.154-0.535-7.83-4.71-7.969-10.086c4.563,0.793,10.078,3.701,9.131,9.906
			c1.377,1.449,1.973,3.743,3.318,5.223c-0.449-5.935,5.949-7.156,5.949-7.156s0.216,8.537-4.455,10.759
			c0.857,1.771,1.436,3.848,2.325,5.583c0.241-2,0.741-3.218,1.659-4.323c1.188-1.428,3.197-3.055,4.814-3.602
			c1.236,5.05-1.008,10.849-5.313,12.067c0.197,2.086,0.363,5.854,1.162,7.385c1.365-2.534,3.711-5.745,6.973-5.043
			c0.277,5.519-3.43,8.127-7.305,9.728c0.168,2.703-0.43,4.576-0.498,7.022c0.931-1.563,8.197-5.649,8.965-4.143
			c-0.641,5.693-3.6,12.019-9.795,9.363c-1.01,2.569-1.678,6.465-2.49,8.649c2.141-1.909,6.336-1.801,9.629-1.082
			c-0.842,4.619-7.066,6.653-11.123,4.504c-2.148,3.971-4.706,8.463-6.973,11.705c2.848-2.107,9.354-5.396,12.285,0.182
			c-1.286,2.661-3.411,3.738-6.476,4.145c-4.264,0.559-6.491-1.715-8.965-1.443c-2.142,2.176-4.612,4.105-7.553,6.406
			c9.599-1.504,11.204,4.22,11.204,4.22s-0.93,2.263-3.984,2.7c-7.607,1.099-9.468-4.678-9.96-5.043
			c-0.676,0.408-4.437,2.858-8.965,4.684c3.42,1.033,6.239,5.07,6.31,9.729c-9.043-0.062-10.998-9.08-11.621-9.369
			c-3.084,0.959-3.838,0.432-5.365,0.959"/>
	</g>
	<circle fill="#FFFFFF" stroke="#8B9931" stroke-width="2" stroke-miterlimit="10" cx="69.151" cy="44.447" r="34.784"/>
	<circle fill="#FFFFFF" stroke="#8B9931" stroke-width="2" stroke-miterlimit="10" cx="69.151" cy="44.447" r="27.631"/>
	<circle fill="#FFFFFF" stroke="#8B9931" stroke-width="2" stroke-miterlimit="10" cx="69.151" cy="44.447" r="17"/>
	<g>
		<rect x="50.651" y="33.023" fill="none" width="37" height="33"/>
		<path fill="#8B9931" d="M67.615,44.538v-2.436c1.029-0.047,1.789-0.25,2.279-0.609c0.492-0.359,0.736-0.901,0.736-1.628
			c0-0.85-0.288-1.532-0.863-2.046c-0.577-0.514-1.351-0.771-2.323-0.771c-0.585,0-1.079,0.083-1.48,0.248
			c-0.401,0.165-0.738,0.422-1.012,0.771c0.538,0,0.977,0.175,1.317,0.524c0.34,0.349,0.51,0.802,0.51,1.359
			c0,0.755-0.231,1.331-0.694,1.728c-0.463,0.397-1.124,0.595-1.982,0.595c-0.831,0-1.506-0.248-2.025-0.744
			c-0.519-0.495-0.779-1.145-0.779-1.947c0-1.595,0.731-2.87,2.195-3.823c1.464-0.953,3.446-1.43,5.947-1.43
			c2.208,0,3.932,0.427,5.167,1.281c1.238,0.854,1.855,2.042,1.855,3.562c0,0.944-0.27,1.734-0.807,2.372
			c-0.538,0.637-1.346,1.121-2.422,1.451c1.313,0.425,2.289,1.017,2.932,1.777c0.643,0.76,0.963,1.706,0.963,2.839
			c0,1.671-0.699,2.983-2.096,3.937s-3.318,1.43-5.763,1.43c-2.766,0-4.864-0.406-6.294-1.218c-1.431-0.812-2.146-2.001-2.146-3.568
			c0-0.935,0.307-1.704,0.92-2.308c0.613-0.604,1.388-0.906,2.322-0.906c0.831,0,1.499,0.227,2.003,0.68
			c0.505,0.453,0.758,1.057,0.758,1.813c0,0.67-0.187,1.178-0.56,1.522c-0.373,0.344-0.96,0.559-1.763,0.644
			c0.377,0.227,0.802,0.394,1.274,0.502c0.472,0.109,0.996,0.163,1.572,0.163c1.124,0,1.992-0.257,2.605-0.771
			c0.614-0.515,0.92-1.253,0.92-2.216c0-0.897-0.277-1.583-0.835-2.06C69.493,44.776,68.682,44.538,67.615,44.538z"/>
	</g>
</g>
</svg>
