<?xml version="1.0" encoding="utf-8"?>
<!-- Generator: Adobe Illustrator 16.0.0, SVG Export Plug-In . SVG Version: 6.00 Build 0)  -->
<!DOCTYPE svg PUBLIC "-//W3C//DTD SVG 1.1//EN" "http://www.w3.org/Graphics/SVG/1.1/DTD/svg11.dtd">
<svg version="1.1" id="Capa_1" xmlns="http://www.w3.org/2000/svg" xmlns:xlink="http://www.w3.org/1999/xlink" x="0px" y="0px"
	 width="100.986px" height="101.986px" viewBox="0 0 100.986 101.986" enable-background="new 0 0 100.986 101.986"
	 xml:space="preserve">
<path fill="#C0C0C0" d="M95.116,62.409l-11.419,4.504l3.562,11.731l-12.15-0.21l-1.151,12.151l-11.208-4.819l-5.762,10.79
	l-8.483-8.799l-9.427,7.856l-4.506-11.42l-11.729,3.667l0.208-12.256l-12.15-1.15l4.817-11.207L4.929,57.592l8.798-8.59
	l-7.855-9.426l11.417-4.504l-3.562-11.628l12.15,0.212L27.03,11.4l11.208,4.923l5.762-10.895l8.484,8.797l9.428-7.751l4.504,11.314
	l11.73-3.563L77.937,26.48l12.15,1.152L85.269,38.84l10.79,5.657L87.26,52.98L95.116,62.409z"/>
<g>
	<rect x="8.494" y="32.46" fill="none" width="84" height="31.517"/>
	<path fill="#FFFFFF" d="M37.877,46.124h-2.669l-6.549-10.612h-0.073l0.046,0.592c0.085,1.13,0.127,2.162,0.127,3.099v6.923h-1.977
		V32.806h2.642l6.531,10.56h0.055c-0.012-0.141-0.036-0.648-0.073-1.526c-0.037-0.877-0.055-1.563-0.055-2.054v-6.979h1.995V46.124z
		"/>
	<path fill="#FFFFFF" d="M41.02,46.124V32.806h2.177v13.318H41.02z"/>
	<path fill="#FFFFFF" d="M53.928,32.806h2.259l-4.664,13.318h-2.295l-4.646-13.318h2.24l2.778,8.281
		c0.146,0.395,0.301,0.903,0.465,1.524c0.164,0.623,0.271,1.087,0.319,1.391c0.079-0.462,0.2-0.996,0.364-1.604
		c0.164-0.607,0.297-1.057,0.4-1.349L53.928,32.806z"/>
	<path fill="#FFFFFF" d="M65.106,46.124h-7.532V32.806h7.532v1.841H59.75v3.625h5.02v1.822h-5.02v4.181h5.355V46.124z"/>
	<path fill="#FFFFFF" d="M67.611,46.124V32.806h2.178v11.451h5.639v1.867H67.611z"/>
</g>
<g>
	<rect x="13.493" y="54.694" fill="none" width="74.001" height="31.518"/>
	<path fill="#FFFFFF" d="M57.089,74.454H44.114v-2.729l4.659-4.71c1.379-1.413,2.281-2.393,2.704-2.938
		c0.423-0.545,0.729-1.052,0.914-1.518c0.187-0.466,0.279-0.948,0.279-1.447c0-0.744-0.205-1.299-0.616-1.662
		c-0.411-0.364-0.958-0.547-1.644-0.547c-0.72,0-1.417,0.165-2.096,0.495c-0.678,0.33-1.384,0.801-2.12,1.409l-2.133-2.525
		c0.914-0.778,1.671-1.329,2.272-1.65c0.601-0.321,1.257-0.569,1.968-0.742c0.711-0.174,1.506-0.261,2.387-0.261
		c1.16,0,2.185,0.212,3.072,0.635s1.579,1.016,2.069,1.777c0.489,0.761,0.735,1.634,0.735,2.615c0,0.854-0.149,1.656-0.45,2.404
		c-0.301,0.75-0.767,1.519-1.396,2.306c-0.63,0.786-1.741,1.907-3.333,3.363l-2.387,2.247v0.178h8.087v3.301H57.089z"/>
</g>
</svg>
