<?xml version="1.0" encoding="utf-8"?>
<!-- Generator: Adobe Illustrator 16.0.0, SVG Export Plug-In . SVG Version: 6.00 Build 0)  -->
<!DOCTYPE svg PUBLIC "-//W3C//DTD SVG 1.1//EN" "http://www.w3.org/Graphics/SVG/1.1/DTD/svg11.dtd">
<svg version="1.1" id="Modo_de_aislamiento" xmlns="http://www.w3.org/2000/svg" xmlns:xlink="http://www.w3.org/1999/xlink"
	 x="0px" y="0px" width="119.055px" height="131px" viewBox="0 0 119.055 131" enable-background="new 0 0 119.055 131"
	 xml:space="preserve">
<g id="TROFEO_x5F_VERDE">
	<g>
		<g>
			<g>
				<path fill="#FFFFFF" d="M87.442,47.038c-12.898,0-23.872-15.115-25.522-35.16l-0.089-1.082h51.225l-0.089,1.082
					C111.314,31.923,100.342,47.038,87.442,47.038z M68.355,16.575c2.586,14.372,10.503,24.683,19.087,24.683
					c8.582,0,16.498-10.311,19.086-24.683H68.355z"/>
				<path fill="#8B9933" d="M111.969,11.796c-1.592,19.322-11.961,34.242-24.526,34.242c-12.564,0-22.935-14.92-24.526-34.242
					H111.969 M87.442,42.258c9.397,0,17.862-11.427,20.271-26.683h-40.54C69.577,30.831,78.045,42.258,87.442,42.258 M114.14,9.796
					h-2.171H62.916h-2.171l0.178,2.164c0.804,9.754,3.826,18.76,8.511,25.36c4.906,6.911,11.302,10.717,18.009,10.717
					s13.104-3.806,18.01-10.718c4.685-6.599,7.707-15.605,8.51-25.36L114.14,9.796L114.14,9.796z M69.567,17.575h35.749
					c-2.691,13.083-10.142,22.683-17.874,22.683C79.708,40.258,72.257,30.66,69.567,17.575L69.567,17.575z"/>
			</g>
			<g>
				<path fill="#FFFFFF" d="M31.134,47.038c-12.899,0-23.872-15.115-25.523-35.16l-0.089-1.082h51.227l-0.089,1.082
					C55.006,31.923,44.034,47.038,31.134,47.038z M12.047,16.575c2.587,14.372,10.504,24.683,19.087,24.683
					s16.499-10.311,19.087-24.683H12.047z"/>
				<path fill="#8B9933" d="M55.661,11.796c-1.593,19.322-11.962,34.242-24.527,34.242S8.199,31.118,6.607,11.796H55.661
					 M31.134,42.258c9.396,0,17.863-11.427,20.27-26.683h-40.54C13.271,30.831,21.736,42.258,31.134,42.258 M57.833,9.796h-2.171
					H6.607H4.436l0.178,2.164c0.805,9.754,3.826,18.76,8.512,25.36c4.905,6.911,11.302,10.717,18.009,10.717
					s13.103-3.806,18.009-10.717c4.686-6.6,7.707-15.606,8.511-25.36L57.833,9.796L57.833,9.796z M13.259,17.575h35.75
					c-2.692,13.083-10.143,22.683-17.875,22.683C23.401,40.258,15.951,30.658,13.259,17.575L13.259,17.575z"/>
			</g>
			<g>
				<path fill="#FFFFFF" d="M51.342,66.104l-0.104-0.022C39.104,63.467,30.544,55.133,30.15,45.67h-0.004l-0.011-1V5.624H88.44
					V45.67h-0.012c-0.395,9.462-8.955,17.796-21.088,20.411l-0.104,0.022H51.342z"/>
				<path fill="#8B9933" d="M87.44,6.624V44.67h-0.009c0.002,0.105,0.011,0.211,0.011,0.317c0,9.542-8.582,17.588-20.313,20.116
					H51.448C39.716,62.576,31.135,54.53,31.135,44.987c0-0.106,0.009-0.212,0.01-0.317h-0.011V6.624H87.44 M89.44,4.624h-2H31.134
					h-2v2V44.67v2h0.083c0.925,9.52,9.633,17.765,21.81,20.389l0.208,0.045h0.214H67.13h0.213l0.208-0.045
					c12.177-2.625,20.885-10.87,21.81-20.389h0.071l0.005-1.257c0.003-0.142,0.005-0.284,0.005-0.426c0-0.05-0.001-0.1-0.003-0.149
					l0.001-0.168V6.624V4.624L89.44,4.624z"/>
			</g>
		</g>
		<g>
			<g>
				<path fill="#FFFFFF" d="M51.291,99.167c0.743-0.328,1.426-0.737,2.038-1.222c0.862-0.682,1.544-1.482,2.025-2.379
					c0.508-0.948,0.769-1.959,0.771-3.002V76.589h-0.138c-0.125-0.59-0.337-1.165-0.634-1.718c-0.48-0.896-1.163-1.699-2.025-2.381
					c-0.848-0.67-1.829-1.195-2.917-1.561c-0.81-0.271-1.653-0.447-2.521-0.524v-7.4h22.723v7.401
					c-0.866,0.076-1.711,0.251-2.52,0.523c-1.088,0.364-2.069,0.889-2.916,1.56c-0.865,0.684-1.547,1.483-2.027,2.38
					c-0.297,0.554-0.509,1.127-0.635,1.717H62.38v15.975c0.002,1.045,0.262,2.057,0.771,3.006c0.481,0.896,1.163,1.697,2.028,2.379
					c0.61,0.484,1.292,0.894,2.034,1.221l-7.962,2.033L51.291,99.167z"/>
				<path fill="#8B9933" d="M69.614,64.005v5.521c-0.627,0.104-1.24,0.256-1.838,0.455c-1.197,0.402-2.279,0.982-3.217,1.724
					c-0.973,0.771-1.744,1.676-2.289,2.692c-0.377,0.703-0.636,1.436-0.772,2.189H61.38v1.289v3.037v4.324v7.328
					c0.002,1.211,0.302,2.379,0.89,3.475c0.546,1.018,1.316,1.924,2.287,2.689c0.026,0.021,0.053,0.043,0.081,0.063l-5.386,1.375
					l-5.383-1.375c0.026-0.021,0.054-0.042,0.081-0.063c0.971-0.768,1.739-1.672,2.285-2.691c0.586-1.094,0.887-2.262,0.891-3.479
					v-7.324v-4.323v-4.324h-0.118c-0.137-0.755-0.396-1.487-0.771-2.188c-0.546-1.021-1.315-1.926-2.286-2.693
					c-0.938-0.742-2.021-1.322-3.219-1.725c-0.598-0.2-1.212-0.354-1.84-0.457v-5.521h10.361h10.36 M71.614,62.005H59.252H46.891
					v9.356c1.137,0.002,2.218,0.186,3.203,0.517c0.983,0.33,1.87,0.808,2.615,1.397c0.744,0.588,1.347,1.289,1.765,2.068
					c0.417,0.779,0.649,1.635,0.652,2.534v-1.289v4.324v4.323v7.324c-0.003,0.897-0.235,1.754-0.652,2.533
					c-0.417,0.778-1.021,1.479-1.765,2.068c-0.745,0.589-1.632,1.066-2.615,1.398c-0.984,0.33-2.066,0.515-3.203,0.516l6.18,1.578
					l6.182,1.578l6.181-1.578l6.181-1.578c-1.136-0.001-2.217-0.186-3.2-0.516c-0.983-0.332-1.869-0.809-2.613-1.398
					c-0.745-0.588-1.349-1.29-1.767-2.068c-0.418-0.779-0.65-1.635-0.652-2.533v-7.324v-4.323v-3.037v-1.289v1.289
					c0.002-0.897,0.234-1.754,0.652-2.533c0.417-0.778,1.021-1.479,1.767-2.069c0.744-0.588,1.63-1.065,2.613-1.396
					c0.983-0.331,2.064-0.514,3.2-0.517V62.005L71.614,62.005z"/>
			</g>
			<g>
				<rect x="47.891" y="98.27" fill="#FFFFFF" width="22.723" height="12.996"/>
				<path fill="#8B9933" d="M69.614,99.27v10.996H48.891V99.27H69.614 M71.614,97.27H46.891v14.996h24.723V97.27L71.614,97.27z"/>
			</g>
			<g>
				<g>
					<path fill="#FFFFFF" d="M54.062,99.686C53.669,100.669,54.611,99.419,54.062,99.686s-0.789,1.104-1.422,1.105l3.447,1.27
						l4.02,0.193l0.446-1.27L65,99.715c-0.633-0.001-1.237-0.148-1.786-0.415c-0.548-0.265-2.042-0.649-2.458-1.124
						c-0.415-0.473,0.232,0.626,0,0c-0.233-0.625-1.347-2.977-1.348-3.699V91v-7.479v-5.883v-5.883
						c0.001-0.722,0.13-1.41,0.362-2.038c0.232-0.625,0.569-1.188,0.984-1.663c0.416-0.474,0.91-0.856,1.458-1.123
						c0.548-0.266-2.767,0.273-0.624-1.585l2.625-1.167l-0.47-5.019l-14.432-0.801l-8.189,2.623
						c1.343,1.485,13.327,5.686,13.875,5.952c0.548,0.267,0.14-2.021,0.556-1.546c0.19-1.887,0.921-1.25,1.154-0.623
						c0.231,0.627-3.376,0.822-3.375,1.544c0,0,3.602,8.147,3.878,8.95c0.211,0.614,0.313,1.416,0.359,1.9
						c0.329,3.485-0.303,18.893-0.303,18.893l0,0"/>
				</g>
				<g>
					<polyline fill="#FFFFFF" points="63.215,64.179 62.745,59.16 48.314,58.358 					"/>
				</g>
				<g>
					<path fill="#FFFFFF" d="M62.248,95.977c0.393,0.985,2.576,3.334,3.405,3.601c0.55,0.267,1.334,1.407,1.969,1.409l-3.448,1.269
						H58.47l-1.446-1.271l-3.446-1.269c0.633-0.001,1.236-0.149,1.785-0.415c0.549-0.265-2.716,0.627-2.301,0.152
						c1.183-0.124,3.376-3.662,3.61-4.288c0.232-0.625,1.495,0.036,1.497-0.688V91v-7.479v-5.883v-5.883
						c-0.001-0.722-0.13-1.41-0.363-2.038c-0.231-0.625-0.569-1.188-0.985-1.663c-0.416-0.474-0.908-0.856-1.458-1.123
						c-0.548-0.266,0.767,0.273-1.376-1.585l0.375-1.167l0.471-5.019l14.431-0.801l5.98,3.647
						c-1.344,1.485-11.117,4.662-11.665,4.928c-0.55,0.266-0.142-2.021-0.557-1.548c-0.189-1.887-0.922-1.25-1.153-0.623
						c-0.232,0.627,3.376,0.822,3.375,1.545c0,0-3.602,8.146-3.877,8.949c-0.212,0.614-0.314,1.416-0.36,1.9
						c-0.33,3.484-0.031,18.039-0.031,18.039l1.7,1.556"/>
				</g>
			</g>
		</g>
		<g>
			<path fill="#FFFFFF" d="M7.008,11.796C8.6,31.118,18.971,46.038,31.535,46.038s22.936-14.92,24.526-34.242H7.008z M31.535,42.258
				c-9.396,0-17.863-11.427-20.271-26.683h40.54C49.399,30.831,40.933,42.258,31.535,42.258z"/>
		</g>
		<g>
			<path fill="#FFFFFF" d="M63.316,11.796c1.593,19.322,11.962,34.242,24.526,34.242c12.563,0,22.936-14.92,24.527-34.242H63.316z
				 M87.843,42.258c-9.397,0-17.863-11.427-20.271-26.683h40.54C105.706,30.831,97.239,42.258,87.843,42.258z"/>
		</g>
	</g>
	<circle fill="#FFFFFF" stroke="#8B9933" stroke-width="2" stroke-miterlimit="10" cx="59.489" cy="35.932" r="17"/>
	<g>
		<rect x="40.412" y="23.432" fill="none" width="37" height="33"/>
		<path fill="#8B9933" d="M52.732,30.763v-2.844c1.303-0.104,2.333-0.362,3.095-0.773c0.76-0.411,1.275-0.987,1.547-1.727h5.063
			v15.359c0,0.531,0.142,0.883,0.422,1.055c0.281,0.172,0.896,0.258,1.845,0.258h0.733v2.813H52.732v-2.813h0.875
			c1.011,0,1.672-0.088,1.984-0.266c0.313-0.177,0.469-0.698,0.469-1.563v-0.125v-9.375L52.732,30.763L52.732,30.763z"/>
	</g>
</g>
<rect x="35.395" y="104.768" fill="#525252" width="48.188" height="22.676"/>
</svg>
